<?xml version="1.0" encoding="utf-8"?>
<!-- Generator: Adobe Illustrator 15.0.2, SVG Export Plug-In  -->
<!DOCTYPE svg PUBLIC "-//W3C//DTD SVG 1.1//EN" "http://www.w3.org/Graphics/SVG/1.1/DTD/svg11.dtd" [
	<!ENTITY ns_flows "http://ns.adobe.com/Flows/1.0/">
]>
<svg version="1.1"
	 xmlns="http://www.w3.org/2000/svg" xmlns:xlink="http://www.w3.org/1999/xlink" xmlns:a="http://ns.adobe.com/AdobeSVGViewerExtensions/3.0/"
	 x="0px" y="0px" width="289px" height="44px" viewBox="0 0 289 44" overflow="visible" enable-background="new 0 0 289 44"
	 xml:space="preserve">
<defs>
</defs>
<polygon fill="#231F20" points="144.2,0 152.1,0 166.4,43.5 155.4,43.5 148.1,19.2 140.9,43.5 129.7,43.5 "/>
<polygon fill="#231F20" points="24.2,43.6 14.2,25.8 10.6,30 10.6,43.6 0,43.6 0,0.1 10.6,0.1 10.6,15.5 23.1,0.1 36.2,0.1 
	21.4,17.7 36.7,43.6 "/>
<path fill="#231F20" d="M57.4,43.9c-9,0-16.4-6.1-16.4-15.6V0.1h10.7v28c0,4,2.2,6.3,5.7,6.3c3.5,0,5.9-2.3,5.9-6.3v-28h10.7v28.2
	C73.9,37.8,66.4,43.9,57.4,43.9"/>
<polygon fill="#231F20" points="122.1,43.6 113.3,43.6 106.3,22.2 99.3,43.6 90.6,43.6 78.7,0.1 89.8,0.1 95.5,23.1 102.5,0.1 
	110.1,0.1 117.1,23.1 122.8,0.1 134,0.1 "/>
<rect x="172.7" y="0.1" fill="#231F20" width="10.7" height="43.5"/>
<polygon fill="#231F20" points="209.8,9.6 209.8,43.6 199.1,43.6 199.1,9.6 188.4,9.6 188.4,0.1 220.4,0.1 220.4,9.6 "/>
</svg>
