<?xml version="1.0" encoding="utf-8"?>
<!-- Generator: Adobe Illustrator 15.0.2, SVG Export Plug-In  -->
<!DOCTYPE svg PUBLIC "-//W3C//DTD SVG 1.1//EN" "http://www.w3.org/Graphics/SVG/1.1/DTD/svg11.dtd" [
	<!ENTITY ns_flows "http://ns.adobe.com/Flows/1.0/">
]>
<svg version="1.1"
	 xmlns="http://www.w3.org/2000/svg" xmlns:xlink="http://www.w3.org/1999/xlink" xmlns:a="http://ns.adobe.com/AdobeSVGViewerExtensions/3.0/"
	 x="0px" y="0px" width="289px" height="44px" viewBox="0 0 289 44" overflow="visible" enable-background="new 0 0 289 44"
	 xml:space="preserve">
<defs>
</defs>
<polygon fill="#231F20" points="68,43.8 68,23 61.9,33.7 55,33.7 48.9,23 48.9,43.8 38.2,43.8 38.2,0.4 48.7,0.4 58.5,19.5 
	68.2,0.4 78.7,0.4 78.7,43.8 "/>
<polygon fill="#231F20" points="150.3,43.8 136.4,22 136.4,43.8 125.7,43.8 125.7,0.4 135.1,0.4 149,22.2 149,0.4 159.7,0.4 
	159.7,43.8 "/>
<polygon fill="#231F20" points="98.2,0.4 106.1,0.4 120.5,43.8 109.4,43.8 102.1,19.5 94.9,43.8 83.8,43.8 "/>
<path fill="#231F20" d="M28.7,39.3c-3.2,3.2-6.8,4.9-12.1,4.9c-5.3,0-9-1.7-12.1-4.9C-0.2,34.7,0,28.6,0,22.1
	C0,15.6-0.2,9.5,4.4,4.9C7.6,1.7,11.2,0,16.5,0c5.3,0,9,1.7,12.1,4.9c4.6,4.6,4.4,10.7,4.4,17.2C33.1,28.6,33.3,34.7,28.7,39.3
	 M20.8,11.4c-0.8-1-2.3-1.9-4.3-1.9c-2,0-3.5,0.9-4.3,1.9c-1,1.3-1.6,2.7-1.6,10.7c0,7.9,0.6,9.3,1.6,10.6c0.8,1,2.3,2,4.3,2
	c2,0,3.5-0.9,4.3-2c1-1.3,1.6-2.7,1.6-10.6C22.4,14.2,21.8,12.7,20.8,11.4"/>
</svg>
