<?xml version="1.0" encoding="utf-8"?>
<!-- Generator: Adobe Illustrator 15.0.2, SVG Export Plug-In  -->
<!DOCTYPE svg PUBLIC "-//W3C//DTD SVG 1.1//EN" "http://www.w3.org/Graphics/SVG/1.1/DTD/svg11.dtd" [
	<!ENTITY ns_flows "http://ns.adobe.com/Flows/1.0/">
]>
<svg version="1.1"
	 xmlns="http://www.w3.org/2000/svg" xmlns:xlink="http://www.w3.org/1999/xlink" xmlns:a="http://ns.adobe.com/AdobeSVGViewerExtensions/3.0/"
	 x="0px" y="0px" width="289px" height="60px" viewBox="0 0 289 60" overflow="visible" enable-background="new 0 0 289 60"
	 xml:space="preserve">
<defs>
</defs>
<path fill="#5F6062" d="M142.08,58.78c-0.93,0.96-1.97,1.22-3.17,1.22c-1.27,0-2.23-0.43-3.03-1.22c-1.15-1.15-1.1-2.67-1.1-4.31
	c0-1.64-0.04-3.17,1.1-4.31c0.79-0.79,1.71-1.22,3.03-1.22c2.8,0,3.99,1.82,4.25,3.61h-2.69c-0.21-0.83-0.64-1.22-1.56-1.22
	c-0.49,0-0.86,0.21-1.06,0.47c-0.24,0.32-0.4,0.69-0.4,2.68c0,1.99,0.15,2.37,0.4,2.69c0.2,0.26,0.57,0.46,1.06,0.46
	c0.57,0,0.95-0.17,1.19-0.43c0.31-0.3,0.41-0.75,0.41-1.16v-0.15h-1.61v-2.23h4.27v1.52C143.19,56.91,142.91,57.94,142.08,58.78"/>
<polygon fill="#5F6062" points="155.76,59.91 155.76,57.83 159.94,51.4 155.94,51.4 155.94,49.02 163.15,49.02 163.15,51.1 
	158.96,57.52 163.15,57.52 163.15,59.91 "/>
<rect x="165.48" y="49.02" fill="#5F6062" width="2.68" height="10.89"/>
<polygon fill="#5F6062" points="177.28,59.91 173.8,54.43 173.8,59.91 171.12,59.91 171.12,49.02 173.46,49.02 176.95,54.5 
	176.95,49.02 179.62,49.02 179.62,59.91 "/>
<polygon fill="#5F6062" points="182.59,59.91 182.59,49.02 190,49.02 190,51.4 185.27,51.4 185.27,53.22 189.31,53.22 189.31,55.61 
	185.27,55.61 185.27,57.52 190,57.52 190,59.91 "/>
<polygon fill="#5F6062" points="127.43,49.02 129.42,49.02 133.01,59.91 130.24,59.91 128.41,53.82 126.6,59.91 123.82,59.91 "/>
<polygon fill="#5F6062" points="148.05,49.02 150.04,49.02 153.63,59.91 150.87,59.91 149.03,53.82 147.22,59.91 144.44,59.91 "/>
<rect x="178.31" y="0.37" fill="#5F6062" width="11.84" height="44.17"/>
<path fill="#FFFFFF" d="M183.34,5.53V4.6h-2.21V3.08h6.2v2.46c0,1.38-0.98,2.12-2,2.12C184.32,7.65,183.34,6.91,183.34,5.53
	 M185.97,5.46V4.6h-1.26v0.86c0,0.42,0.31,0.66,0.63,0.66C185.66,6.12,185.97,5.88,185.97,5.46"/>
<path fill="#FFFFFF" d="M181.13,11.46l2.31-1.1V9.84h-2.31V8.32h6.2v2.46c0,1.38-0.98,2.12-2,2.12c-0.84,0-1.37-0.52-1.62-1.01
	l-2.59,1.34V11.46z M185.97,10.71V9.84h-1.26v0.86c0,0.42,0.31,0.66,0.63,0.66C185.66,11.37,185.97,11.12,185.97,10.71"/>
<path fill="#FFFFFF" d="M181.78,17.7c-0.45-0.45-0.7-0.98-0.7-1.73c0-0.76,0.24-1.28,0.7-1.73c0.65-0.65,1.52-0.63,2.45-0.63
	c0.93,0,1.8-0.03,2.46,0.63c0.45,0.45,0.7,0.98,0.7,1.73c0,0.76-0.24,1.28-0.7,1.73c-0.65,0.65-1.53,0.63-2.46,0.63
	C183.3,18.33,182.43,18.36,181.78,17.7 M185.76,16.58c0.15-0.11,0.27-0.33,0.27-0.61c0-0.28-0.12-0.5-0.27-0.61
	c-0.18-0.14-0.39-0.22-1.52-0.22c-1.13,0-1.33,0.09-1.51,0.22c-0.15,0.11-0.28,0.33-0.28,0.61c0,0.28,0.13,0.5,0.28,0.61
	c0.18,0.14,0.38,0.23,1.51,0.23C185.36,16.81,185.57,16.72,185.76,16.58"/>
<path fill="#FFFFFF" d="M181.08,19.97c0-0.72,0.17-1.18,0.68-1.69l0.99,1c-0.19,0.19-0.32,0.35-0.32,0.69
	c0,0.47,0.26,0.81,0.85,0.81h4.04v1.52h-4.08C181.79,22.3,181.08,21.14,181.08,19.97"/>
<path fill="#FFFFFF" d="M182.99,22.99c0.74,0,1.12,0.38,1.35,0.72c0.2-0.31,0.53-0.64,1.21-0.64c1.07,0,1.84,0.84,1.84,1.99
	c0,1.11-0.71,1.99-1.87,1.99v-1.43c0.38,0,0.58-0.27,0.58-0.57c0-0.29-0.2-0.57-0.59-0.57c-0.28,0-0.58,0.17-0.58,0.59v0.2h-1.24
	v-0.2c0-0.38-0.28-0.66-0.65-0.66c-0.45,0-0.66,0.26-0.66,0.63c0,0.36,0.22,0.64,0.65,0.64v1.43c-1.39,0-1.94-1.04-1.94-2.06
	C181.08,23.97,181.69,22.99,182.99,22.99"/>
<path fill="#FFFFFF" d="M181.08,30.09c0-0.72,0.24-1.27,0.7-1.73c0.65-0.65,1.52-0.63,2.46-0.63c0.93,0,1.8-0.03,2.46,0.63
	c0.45,0.46,0.7,1,0.7,1.73c0,1.18-0.65,2.12-2.02,2.35v-1.55c0.35-0.09,0.66-0.29,0.66-0.79c0-0.28-0.12-0.49-0.26-0.6
	c-0.18-0.14-0.4-0.23-1.53-0.23c-1.13,0-1.35,0.1-1.53,0.23c-0.15,0.11-0.26,0.32-0.26,0.6c0,0.51,0.32,0.7,0.66,0.79v1.55
	C181.73,32.22,181.08,31.27,181.08,30.09"/>
<polygon fill="#FFFFFF" points="185.97,35.54 181.13,35.54 181.13,34.01 185.97,34.01 185.97,32.49 187.33,32.49 187.33,37.06 
	185.97,37.06 "/>
<polygon fill="#5F6062" points="118.89,59.91 118.89,54.69 117.35,57.38 115.64,57.38 114.09,54.69 114.09,59.91 111.41,59.91 
	111.41,49.02 114.04,49.02 116.49,53.82 118.94,49.02 121.57,49.02 121.57,59.91 "/>
<path fill="#FFFFFF" d="M181.08,39.44c0-0.95,0.17-1.72,0.82-2.35l0.98,0.98c-0.32,0.32-0.44,0.89-0.44,1.39
	c0,0.6,0.2,0.89,0.56,0.89c0.15,0,0.27-0.04,0.36-0.12c0.08-0.08,0.14-0.21,0.17-0.41l0.1-0.75c0.08-0.55,0.26-0.97,0.55-1.25
	c0.3-0.29,0.72-0.43,1.25-0.43c1.13,0,1.96,0.85,1.96,2.27c0,0.89-0.21,1.56-0.74,2.09l-0.96-0.96c0.39-0.39,0.37-0.91,0.37-1.18
	c0-0.53-0.3-0.75-0.57-0.75c-0.08,0-0.19,0.03-0.29,0.12c-0.08,0.08-0.16,0.21-0.18,0.43l-0.1,0.75c-0.08,0.55-0.25,0.96-0.51,1.22
	c-0.32,0.33-0.78,0.46-1.36,0.46C181.77,41.83,181.08,40.74,181.08,39.44"/>
<g>
	<defs>
		<rect id="SVGID_2_" x="0" width="190.15" height="60"/>
	</defs>
	<clipPath id="SVGID_4_">
		<use xlink:href="#SVGID_2_"  overflow="visible"/>
	</clipPath>
</g>
<polygon fill="#78003C" points="91.11,10.09 91.11,44.7 80.21,44.7 80.21,10.09 69.32,10.09 69.32,0.38 102,0.38 102,10.09 "/>
<path fill="#78003C" d="M161.31,44.7l-7.85-16.5h-3.67v16.5H138.9V0.38h17.56c9.84,0,15.13,6.97,15.13,14.26
	c0,6.04-3.74,9.84-7.22,11.58l9.59,18.49H161.31z M155.95,10.15h-6.16v8.97h6.16c2.99,0,4.73-2.18,4.73-4.48
	C160.69,12.33,158.94,10.15,155.95,10.15"/>
<polygon fill="#78003C" points="52.3,0.38 60.39,0.38 75.02,44.7 63.75,44.7 56.28,19.92 48.94,44.7 37.61,44.7 "/>
<polygon fill="#78003C" points="110.98,0.38 119.08,0.38 133.71,44.7 122.44,44.7 114.97,19.92 107.62,44.7 96.29,44.7 "/>
<path fill="#78003C" d="M28.89,46.45l-3.42-3.43c-2.37,1.37-5.17,2.06-8.59,2.06c-5.42,0-9.15-1.74-12.39-4.98
	C-0.19,35.43,0,29.2,0,22.54C0,15.88-0.19,9.65,4.48,4.98C7.72,1.75,11.46,0,16.87,0c5.42,0,9.15,1.74,12.39,4.98
	c4.67,4.67,4.48,10.9,4.48,17.56c0,5.54,0.12,10.83-2.55,15.13l3.24,3.24L28.89,46.45z M21.23,11.64c-0.81-1.06-2.37-1.93-4.36-1.93
	c-1.99,0-3.55,0.87-4.36,1.93c-1,1.31-1.62,2.8-1.62,10.89c0,8.09,0.62,9.53,1.62,10.83c0.81,1.06,2.36,1.99,4.36,1.99
	c0.31,0,0.56,0,0.87-0.06l-2.8-2.8l5.54-5.54l2.12,2.12c0.12-1.5,0.25-3.55,0.25-6.54C22.85,14.45,22.23,12.95,21.23,11.64"/>
</svg>
