<?xml version="1.0" encoding="utf-8"?>
<!-- Generator: Adobe Illustrator 15.0.2, SVG Export Plug-In  -->
<!DOCTYPE svg PUBLIC "-//W3C//DTD SVG 1.1//EN" "http://www.w3.org/Graphics/SVG/1.1/DTD/svg11.dtd" [
	<!ENTITY ns_flows "http://ns.adobe.com/Flows/1.0/">
]>
<svg version="1.1"
	 xmlns="http://www.w3.org/2000/svg" xmlns:xlink="http://www.w3.org/1999/xlink" xmlns:a="http://ns.adobe.com/AdobeSVGViewerExtensions/3.0/"
	 x="0px" y="0px" width="289px" height="44px" viewBox="0 0 289 44" overflow="visible" enable-background="new 0 0 289 44"
	 xml:space="preserve">
<defs>
</defs>
<polygon fill="#231F20" points="86.2,9.5 86.2,42.3 75.9,42.3 75.9,9.5 65.6,9.5 65.6,0.4 96.5,0.4 96.5,9.5 "/>
<path fill="#231F20" d="M152.6,42.3l-7.4-15.6h-3.5v15.6h-10.3V0.4H148c9.3,0,14.3,6.6,14.3,13.5c0,5.7-3.5,9.3-6.8,11l9.1,17.5
	H152.6z M147.5,9.6h-5.8v8.5h5.8c2.8,0,4.5-2.1,4.5-4.2C152,11.7,150.4,9.6,147.5,9.6"/>
<polygon fill="#231F20" points="49.5,0.4 57.1,0.4 71,42.3 60.3,42.3 53.2,18.8 46.3,42.3 35.6,42.3 "/>
<polygon fill="#231F20" points="105,0.4 112.6,0.4 126.5,42.3 115.8,42.3 108.8,18.8 101.8,42.3 91.1,42.3 "/>
<path fill="#231F20" d="M27.3,43.9l-3.2-3.2c-2.2,1.3-4.9,1.9-8.1,1.9c-5.1,0-8.7-1.6-11.7-4.7C-0.2,33.5,0,27.6,0,21.3
	C0,15-0.2,9.1,4.2,4.7C7.3,1.6,10.8,0,16,0c5.1,0,8.7,1.6,11.7,4.7c4.4,4.4,4.2,10.3,4.2,16.6c0,5.2,0.1,10.2-2.4,14.3l3.1,3.1
	L27.3,43.9z M20.1,11c-0.8-1-2.2-1.8-4.1-1.8c-1.9,0-3.4,0.8-4.1,1.8c-0.9,1.2-1.5,2.7-1.5,10.3c0,7.7,0.6,9,1.5,10.2
	c0.8,1,2.2,1.9,4.1,1.9c0.3,0,0.5,0,0.8-0.1l-2.7-2.7l5.2-5.2l2,2c0.1-1.4,0.2-3.4,0.2-6.2C21.6,13.7,21,12.2,20.1,11"/>
</svg>
