<?xml version="1.0" encoding="utf-8"?>
<!-- Generator: Adobe Illustrator 16.0.0, SVG Export Plug-In . SVG Version: 6.00 Build 0)  -->
<!DOCTYPE svg PUBLIC "-//W3C//DTD SVG 1.1//EN" "http://www.w3.org/Graphics/SVG/1.1/DTD/svg11.dtd">
<svg version="1.1"
	 id="svg1919" xmlns:dc="http://purl.org/dc/elements/1.1/" xmlns:cc="http://creativecommons.org/ns#" xmlns:rdf="http://www.w3.org/1999/02/22-rdf-syntax-ns#" xmlns:svg="http://www.w3.org/2000/svg" xmlns:sodipodi="http://sodipodi.sourceforge.net/DTD/sodipodi-0.dtd" xmlns:inkscape="http://www.inkscape.org/namespaces/inkscape" inkscape:version="0.48+devel r10754" sodipodi:docname="Yeni belge 2"
	 xmlns="http://www.w3.org/2000/svg" xmlns:xlink="http://www.w3.org/1999/xlink" x="0px" y="0px" width="622.902px"
	 height="766.013px" viewBox="60.334 182.692 622.902 766.013" enable-background="new 60.334 182.692 622.902 766.013"
	 xml:space="preserve">
<sodipodi:namedview  id="base" pagecolor="#ffffff" bordercolor="#666666" borderopacity="1.0" inkscape:zoom="0.35" inkscape:cx="33.571429" inkscape:cy="520" showgrid="false" inkscape:window-width="1280" inkscape:pageshadow="2" inkscape:document-units="px" inkscape:current-layer="svg1919" inkscape:window-height="744" inkscape:window-x="-4" inkscape:window-y="-4" inkscape:pageopacity="0.0" inkscape:window-maximized="1">
	</sodipodi:namedview>
<g id="layer1" inkscape:label="Layer 1" inkscape:groupmode="layer">
</g>
<g id="year_2013" transform="translate(0,106.30766)">
	<g id="month_1_2013" transform="translate(68.740157,88.188976)">
		
			<text id="text1936" transform="matrix(1 0 0 1 48.7989 4.4086)" fill="#686868" font-family="'Arial-BoldMT'" font-size="18.8976">January</text>
		<g id="g1938">
			<text id="text1940" transform="matrix(1 0 0 1 -8.4062 22.0463)" fill="#909090" font-family="'ArialMT'" font-size="9.4488">Sun</text>
			<text id="text1942" transform="matrix(1 0 0 1 19.1558 22.0463)" fill="#909090" font-family="'ArialMT'" font-size="9.4488">Mon</text>
			<text id="text1944" transform="matrix(1 0 0 1 48.7276 22.0463)" fill="#909090" font-family="'ArialMT'" font-size="9.4488">Tue</text>
			<text id="text1946" transform="matrix(1 0 0 1 75.4107 22.0463)" fill="#909090" font-family="'ArialMT'" font-size="9.4488">Wed</text>
			<text id="text1948" transform="matrix(1 0 0 1 105.2452 22.0463)" fill="#909090" font-family="'ArialMT'" font-size="9.4488">Thu</text>
			<text id="text1950" transform="matrix(1 0 0 1 136.2237 22.0463)" fill="#909090" font-family="'ArialMT'" font-size="9.4488">Fri</text>
			<text id="text1952" transform="matrix(1 0 0 1 162.9874 22.0463)" fill="#909090" font-family="'ArialMT'" font-size="9.4488">Sat</text>
		</g>
		<g id="g1954">
			<text id="text1956" transform="matrix(1 0 0 1 -7.8822 44.0942)" fill="#B0B0B0" font-family="'ArialMT'" font-size="14.1732">30</text>
			<text id="text1958" transform="matrix(1 0 0 1 20.4639 44.0942)" fill="#B0B0B0" font-family="'ArialMT'" font-size="14.1732">31</text>
			<text id="text1960" transform="matrix(1 0 0 1 52.7515 44.0942)" font-family="'ArialMT'" font-size="14.1732">1</text>
			<text id="text1962" transform="matrix(1 0 0 1 81.0982 44.0942)" font-family="'ArialMT'" font-size="14.1732">2</text>
			<text id="text1964" transform="matrix(1 0 0 1 109.4444 44.0942)" font-family="'ArialMT'" font-size="14.1732">3</text>
			<text id="text1966" transform="matrix(1 0 0 1 137.7911 44.0942)" font-family="'ArialMT'" font-size="14.1732">4</text>
			<text id="text1968" transform="matrix(1 0 0 1 166.1373 44.0942)" fill="#787878" font-family="'ArialMT'" font-size="14.1732">5</text>
			<text id="text1970" transform="matrix(1 0 0 1 -3.9413 66.1411)" fill="#787878" font-family="'ArialMT'" font-size="14.1732">6</text>
			<text id="text1972" transform="matrix(1 0 0 1 24.4053 66.1411)" font-family="'ArialMT'" font-size="14.1732">7</text>
			<text id="text1974" transform="matrix(1 0 0 1 52.7515 66.1411)" font-family="'ArialMT'" font-size="14.1732">8</text>
			<text id="text1976" transform="matrix(1 0 0 1 81.0982 66.1411)" font-family="'ArialMT'" font-size="14.1732">9</text>
			<text id="text1978" transform="matrix(1 0 0 1 105.5035 66.1411)" font-family="'ArialMT'" font-size="14.1732">10</text>
			<text id="text1980" transform="matrix(1 0 0 1 134.3756 66.1411)" font-family="'ArialMT'" font-size="14.1732">11</text>
			<text id="text1982" transform="matrix(1 0 0 1 162.1964 66.1411)" fill="#787878" font-family="'ArialMT'" font-size="14.1732">12</text>
			<text id="text1984" transform="matrix(1 0 0 1 -7.8822 88.1879)" fill="#787878" font-family="'ArialMT'" font-size="14.1732">13</text>
			<text id="text1986" transform="matrix(1 0 0 1 20.4639 88.1879)" font-family="'ArialMT'" font-size="14.1732">14</text>
			<text id="text1988" transform="matrix(1 0 0 1 48.8106 88.1879)" font-family="'ArialMT'" font-size="14.1732">15</text>
			<text id="text1990" transform="matrix(1 0 0 1 77.1568 88.1879)" font-family="'ArialMT'" font-size="14.1732">16</text>
			<text id="text1992" transform="matrix(1 0 0 1 105.5035 88.1879)" font-family="'ArialMT'" font-size="14.1732">17</text>
			<text id="text1994" transform="matrix(1 0 0 1 133.8497 88.1879)" font-family="'ArialMT'" font-size="14.1732">18</text>
			<text id="text1996" transform="matrix(1 0 0 1 162.1964 88.1879)" fill="#787878" font-family="'ArialMT'" font-size="14.1732">19</text>
			<text id="text1998" transform="matrix(1 0 0 1 -7.8822 110.2358)" fill="#787878" font-family="'ArialMT'" font-size="14.1732">20</text>
			<text id="text2000" transform="matrix(1 0 0 1 20.4639 110.2358)" font-family="'ArialMT'" font-size="14.1732">21</text>
			<text id="text2002" transform="matrix(1 0 0 1 48.8106 110.2358)" font-family="'ArialMT'" font-size="14.1732">22</text>
			<text id="text2004" transform="matrix(1 0 0 1 77.1568 110.2358)" font-family="'ArialMT'" font-size="14.1732">23</text>
			<text id="text2006" transform="matrix(1 0 0 1 105.5035 110.2358)" font-family="'ArialMT'" font-size="14.1732">24</text>
			<text id="text2008" transform="matrix(1 0 0 1 133.8497 110.2358)" font-family="'ArialMT'" font-size="14.1732">25</text>
			<text id="text2010" transform="matrix(1 0 0 1 162.1964 110.2358)" fill="#787878" font-family="'ArialMT'" font-size="14.1732">26</text>
			<text id="text2012" transform="matrix(1 0 0 1 -7.8822 132.2827)" fill="#787878" font-family="'ArialMT'" font-size="14.1732">27</text>
			<text id="text2014" transform="matrix(1 0 0 1 20.4639 132.2827)" font-family="'ArialMT'" font-size="14.1732">28</text>
			<text id="text2016" transform="matrix(1 0 0 1 48.8106 132.2827)" font-family="'ArialMT'" font-size="14.1732">29</text>
			<text id="text2018" transform="matrix(1 0 0 1 77.1568 132.2827)" font-family="'ArialMT'" font-size="14.1732">30</text>
			<text id="text2020" transform="matrix(1 0 0 1 105.5035 132.2827)" font-family="'ArialMT'" font-size="14.1732">31</text>
			<text id="text2022" transform="matrix(1 0 0 1 137.7911 132.2827)" fill="#B0B0B0" font-family="'ArialMT'" font-size="14.1732">1</text>
			<text id="text2024" transform="matrix(1 0 0 1 166.1373 132.2827)" fill="#B0B0B0" font-family="'ArialMT'" font-size="14.1732">2</text>
			<text id="text2026" transform="matrix(1 0 0 1 -3.9413 154.3295)" fill="#B0B0B0" font-family="'ArialMT'" font-size="14.1732">3</text>
			<text id="text2028" transform="matrix(1 0 0 1 24.4053 154.3295)" fill="#B0B0B0" font-family="'ArialMT'" font-size="14.1732">4</text>
			<text id="text2030" transform="matrix(1 0 0 1 52.7515 154.3295)" fill="#B0B0B0" font-family="'ArialMT'" font-size="14.1732">5</text>
			<text id="text2032" transform="matrix(1 0 0 1 81.0982 154.3295)" fill="#B0B0B0" font-family="'ArialMT'" font-size="14.1732">6</text>
			<text id="text2034" transform="matrix(1 0 0 1 109.4444 154.3295)" fill="#B0B0B0" font-family="'ArialMT'" font-size="14.1732">7</text>
			<text id="text2036" transform="matrix(1 0 0 1 137.7911 154.3295)" fill="#B0B0B0" font-family="'ArialMT'" font-size="14.1732">8</text>
			<text id="text2038" transform="matrix(1 0 0 1 166.1373 154.3295)" fill="#B0B0B0" font-family="'ArialMT'" font-size="14.1732">9</text>
		</g>
	</g>
	<g id="month_2_2013" transform="translate(287.00787,88.188976)">
		
			<text id="text2041" transform="matrix(1 0 0 1 44.6049 4.4086)" fill="#686868" font-family="'Arial-BoldMT'" font-size="18.8976">February</text>
		<g id="g2043">
			<text id="text2045" transform="matrix(1 0 0 1 -8.4063 22.0463)" fill="#909090" font-family="'ArialMT'" font-size="9.4488">Sun</text>
			<text id="text2047" transform="matrix(1 0 0 1 19.1562 22.0463)" fill="#909090" font-family="'ArialMT'" font-size="9.4488">Mon</text>
			<text id="text2049" transform="matrix(1 0 0 1 48.727 22.0463)" fill="#909090" font-family="'ArialMT'" font-size="9.4488">Tue</text>
			<text id="text2051" transform="matrix(1 0 0 1 75.4106 22.0463)" fill="#909090" font-family="'ArialMT'" font-size="9.4488">Wed</text>
			<text id="text2053" transform="matrix(1 0 0 1 105.2446 22.0463)" fill="#909090" font-family="'ArialMT'" font-size="9.4488">Thu</text>
			<text id="text2055" transform="matrix(1 0 0 1 136.2231 22.0463)" fill="#909090" font-family="'ArialMT'" font-size="9.4488">Fri</text>
			<text id="text2057" transform="matrix(1 0 0 1 162.9868 22.0463)" fill="#909090" font-family="'ArialMT'" font-size="9.4488">Sat</text>
		</g>
		<g id="g2059">
			<text id="text2061" transform="matrix(1 0 0 1 -7.8824 44.0942)" fill="#B0B0B0" font-family="'ArialMT'" font-size="14.1732">27</text>
			<text id="text2063" transform="matrix(1 0 0 1 20.4638 44.0942)" fill="#B0B0B0" font-family="'ArialMT'" font-size="14.1732">28</text>
			<text id="text2065" transform="matrix(1 0 0 1 48.811 44.0942)" fill="#B0B0B0" font-family="'ArialMT'" font-size="14.1732">29</text>
			<text id="text2067" transform="matrix(1 0 0 1 77.1567 44.0942)" fill="#B0B0B0" font-family="'ArialMT'" font-size="14.1732">30</text>
			<text id="text2069" transform="matrix(1 0 0 1 105.5034 44.0942)" fill="#B0B0B0" font-family="'ArialMT'" font-size="14.1732">31</text>
			<text id="text2071" transform="matrix(1 0 0 1 137.7914 44.0942)" font-family="'ArialMT'" font-size="14.1732">1</text>
			<text id="text2073" transform="matrix(1 0 0 1 166.1371 44.0942)" fill="#787878" font-family="'ArialMT'" font-size="14.1732">2</text>
			<text id="text2075" transform="matrix(1 0 0 1 -3.9415 66.1411)" fill="#787878" font-family="'ArialMT'" font-size="14.1732">3</text>
			<text id="text2077" transform="matrix(1 0 0 1 24.4052 66.1411)" font-family="'ArialMT'" font-size="14.1732">4</text>
			<text id="text2079" transform="matrix(1 0 0 1 52.7524 66.1411)" font-family="'ArialMT'" font-size="14.1732">5</text>
			<text id="text2081" transform="matrix(1 0 0 1 81.0981 66.1411)" font-family="'ArialMT'" font-size="14.1732">6</text>
			<text id="text2083" transform="matrix(1 0 0 1 109.4448 66.1411)" font-family="'ArialMT'" font-size="14.1732">7</text>
			<text id="text2085" transform="matrix(1 0 0 1 137.7914 66.1411)" font-family="'ArialMT'" font-size="14.1732">8</text>
			<text id="text2087" transform="matrix(1 0 0 1 166.1371 66.1411)" fill="#787878" font-family="'ArialMT'" font-size="14.1732">9</text>
			<text id="text2089" transform="matrix(1 0 0 1 -7.8824 88.1879)" fill="#787878" font-family="'ArialMT'" font-size="14.1732">10</text>
			<text id="text2091" transform="matrix(1 0 0 1 20.9902 88.1879)" font-family="'ArialMT'" font-size="14.1732">11</text>
			<text id="text2093" transform="matrix(1 0 0 1 48.811 88.1879)" font-family="'ArialMT'" font-size="14.1732">12</text>
			<text id="text2095" transform="matrix(1 0 0 1 77.1567 88.1879)" font-family="'ArialMT'" font-size="14.1732">13</text>
			<text id="text2097" transform="matrix(1 0 0 1 105.5034 88.1879)" font-family="'ArialMT'" font-size="14.1732">14</text>
			<text id="text2099" transform="matrix(1 0 0 1 133.85 88.1879)" font-family="'ArialMT'" font-size="14.1732">15</text>
			<text id="text2101" transform="matrix(1 0 0 1 162.1957 88.1879)" fill="#787878" font-family="'ArialMT'" font-size="14.1732">16</text>
			<text id="text2103" transform="matrix(1 0 0 1 -7.8824 110.2358)" fill="#787878" font-family="'ArialMT'" font-size="14.1732">17</text>
			<text id="text2105" transform="matrix(1 0 0 1 20.4638 110.2358)" font-family="'ArialMT'" font-size="14.1732">18</text>
			<text id="text2107" transform="matrix(1 0 0 1 48.811 110.2358)" font-family="'ArialMT'" font-size="14.1732">19</text>
			<text id="text2109" transform="matrix(1 0 0 1 77.1567 110.2358)" font-family="'ArialMT'" font-size="14.1732">20</text>
			<text id="text2111" transform="matrix(1 0 0 1 105.5034 110.2358)" font-family="'ArialMT'" font-size="14.1732">21</text>
			<text id="text2113" transform="matrix(1 0 0 1 133.85 110.2358)" font-family="'ArialMT'" font-size="14.1732">22</text>
			<text id="text2115" transform="matrix(1 0 0 1 162.1957 110.2358)" fill="#787878" font-family="'ArialMT'" font-size="14.1732">23</text>
			<text id="text2117" transform="matrix(1 0 0 1 -7.8824 132.2827)" fill="#787878" font-family="'ArialMT'" font-size="14.1732">24</text>
			<text id="text2119" transform="matrix(1 0 0 1 20.4638 132.2827)" font-family="'ArialMT'" font-size="14.1732">25</text>
			<text id="text2121" transform="matrix(1 0 0 1 48.811 132.2827)" font-family="'ArialMT'" font-size="14.1732">26</text>
			<text id="text2123" transform="matrix(1 0 0 1 77.1567 132.2827)" font-family="'ArialMT'" font-size="14.1732">27</text>
			<text id="text2125" transform="matrix(1 0 0 1 105.5034 132.2827)" font-family="'ArialMT'" font-size="14.1732">28</text>
			<text id="text2127" transform="matrix(1 0 0 1 137.7914 132.2827)" fill="#B0B0B0" font-family="'ArialMT'" font-size="14.1732">1</text>
			<text id="text2129" transform="matrix(1 0 0 1 166.1371 132.2827)" fill="#B0B0B0" font-family="'ArialMT'" font-size="14.1732">2</text>
			<text id="text2131" transform="matrix(1 0 0 1 -3.9415 154.3295)" fill="#B0B0B0" font-family="'ArialMT'" font-size="14.1732">3</text>
			<text id="text2133" transform="matrix(1 0 0 1 24.4052 154.3295)" fill="#B0B0B0" font-family="'ArialMT'" font-size="14.1732">4</text>
			<text id="text2135" transform="matrix(1 0 0 1 52.7524 154.3295)" fill="#B0B0B0" font-family="'ArialMT'" font-size="14.1732">5</text>
			<text id="text2137" transform="matrix(1 0 0 1 81.0981 154.3295)" fill="#B0B0B0" font-family="'ArialMT'" font-size="14.1732">6</text>
			<text id="text2139" transform="matrix(1 0 0 1 109.4448 154.3295)" fill="#B0B0B0" font-family="'ArialMT'" font-size="14.1732">7</text>
			<text id="text2141" transform="matrix(1 0 0 1 137.7914 154.3295)" fill="#B0B0B0" font-family="'ArialMT'" font-size="14.1732">8</text>
			<text id="text2143" transform="matrix(1 0 0 1 166.1371 154.3295)" fill="#B0B0B0" font-family="'ArialMT'" font-size="14.1732">9</text>
		</g>
	</g>
	<g id="month_3_2013" transform="translate(505.27559,88.188976)">
		
			<text id="text2146" transform="matrix(1 0 0 1 57.2093 4.4086)" fill="#686868" font-family="'Arial-BoldMT'" font-size="18.8976">March</text>
		<g id="g2148">
			<text id="text2150" transform="matrix(1 0 0 1 -8.406 22.0463)" fill="#909090" font-family="'ArialMT'" font-size="9.4488">Sun</text>
			<text id="text2152" transform="matrix(1 0 0 1 19.1565 22.0463)" fill="#909090" font-family="'ArialMT'" font-size="9.4488">Mon</text>
			<text id="text2154" transform="matrix(1 0 0 1 48.7268 22.0463)" fill="#909090" font-family="'ArialMT'" font-size="9.4488">Tue</text>
			<text id="text2156" transform="matrix(1 0 0 1 75.4104 22.0463)" fill="#909090" font-family="'ArialMT'" font-size="9.4488">Wed</text>
			<text id="text2158" transform="matrix(1 0 0 1 105.2444 22.0463)" fill="#909090" font-family="'ArialMT'" font-size="9.4488">Thu</text>
			<text id="text2160" transform="matrix(1 0 0 1 136.2229 22.0463)" fill="#909090" font-family="'ArialMT'" font-size="9.4488">Fri</text>
			<text id="text2162" transform="matrix(1 0 0 1 162.9876 22.0463)" fill="#909090" font-family="'ArialMT'" font-size="9.4488">Sat</text>
		</g>
		<g id="g2164">
			<text id="text2166" transform="matrix(1 0 0 1 -7.8825 44.0942)" fill="#B0B0B0" font-family="'ArialMT'" font-size="14.1732">24</text>
			<text id="text2168" transform="matrix(1 0 0 1 20.4641 44.0942)" fill="#B0B0B0" font-family="'ArialMT'" font-size="14.1732">25</text>
			<text id="text2170" transform="matrix(1 0 0 1 48.8108 44.0942)" fill="#B0B0B0" font-family="'ArialMT'" font-size="14.1732">26</text>
			<text id="text2172" transform="matrix(1 0 0 1 77.1565 44.0942)" fill="#B0B0B0" font-family="'ArialMT'" font-size="14.1732">27</text>
			<text id="text2174" transform="matrix(1 0 0 1 105.5032 44.0942)" fill="#B0B0B0" font-family="'ArialMT'" font-size="14.1732">28</text>
			<text id="text2176" transform="matrix(1 0 0 1 137.7913 44.0942)" font-family="'ArialMT'" font-size="14.1732">1</text>
			<text id="text2178" transform="matrix(1 0 0 1 166.137 44.0942)" fill="#787878" font-family="'ArialMT'" font-size="14.1732">2</text>
			<text id="text2180" transform="matrix(1 0 0 1 -3.9411 66.1411)" fill="#787878" font-family="'ArialMT'" font-size="14.1732">3</text>
			<text id="text2182" transform="matrix(1 0 0 1 24.4046 66.1411)" font-family="'ArialMT'" font-size="14.1732">4</text>
			<text id="text2184" transform="matrix(1 0 0 1 52.7522 66.1411)" font-family="'ArialMT'" font-size="14.1732">5</text>
			<text id="text2186" transform="matrix(1 0 0 1 81.0979 66.1411)" font-family="'ArialMT'" font-size="14.1732">6</text>
			<text id="text2188" transform="matrix(1 0 0 1 109.4446 66.1411)" font-family="'ArialMT'" font-size="14.1732">7</text>
			<text id="text2190" transform="matrix(1 0 0 1 137.7913 66.1411)" font-family="'ArialMT'" font-size="14.1732">8</text>
			<text id="text2192" transform="matrix(1 0 0 1 166.137 66.1411)" fill="#787878" font-family="'ArialMT'" font-size="14.1732">9</text>
			<text id="text2194" transform="matrix(1 0 0 1 -7.8825 88.1879)" fill="#787878" font-family="'ArialMT'" font-size="14.1732">10</text>
			<text id="text2196" transform="matrix(1 0 0 1 20.9905 88.1879)" font-family="'ArialMT'" font-size="14.1732">11</text>
			<text id="text2198" transform="matrix(1 0 0 1 48.8108 88.1879)" font-family="'ArialMT'" font-size="14.1732">12</text>
			<text id="text2200" transform="matrix(1 0 0 1 77.1565 88.1879)" font-family="'ArialMT'" font-size="14.1732">13</text>
			<text id="text2202" transform="matrix(1 0 0 1 105.5032 88.1879)" font-family="'ArialMT'" font-size="14.1732">14</text>
			<text id="text2204" transform="matrix(1 0 0 1 133.8499 88.1879)" font-family="'ArialMT'" font-size="14.1732">15</text>
			<text id="text2206" transform="matrix(1 0 0 1 162.1956 88.1879)" fill="#787878" font-family="'ArialMT'" font-size="14.1732">16</text>
			<text id="text2208" transform="matrix(1 0 0 1 -7.8825 110.2358)" fill="#787878" font-family="'ArialMT'" font-size="14.1732">17</text>
			<text id="text2210" transform="matrix(1 0 0 1 20.4641 110.2358)" font-family="'ArialMT'" font-size="14.1732">18</text>
			<text id="text2212" transform="matrix(1 0 0 1 48.8108 110.2358)" font-family="'ArialMT'" font-size="14.1732">19</text>
			<text id="text2214" transform="matrix(1 0 0 1 77.1565 110.2358)" font-family="'ArialMT'" font-size="14.1732">20</text>
			<text id="text2216" transform="matrix(1 0 0 1 105.5032 110.2358)" font-family="'ArialMT'" font-size="14.1732">21</text>
			<text id="text2218" transform="matrix(1 0 0 1 133.8499 110.2358)" font-family="'ArialMT'" font-size="14.1732">22</text>
			<text id="text2220" transform="matrix(1 0 0 1 162.1956 110.2358)" fill="#787878" font-family="'ArialMT'" font-size="14.1732">23</text>
			<text id="text2222" transform="matrix(1 0 0 1 -7.8825 132.2827)" fill="#787878" font-family="'ArialMT'" font-size="14.1732">24</text>
			<text id="text2224" transform="matrix(1 0 0 1 20.4641 132.2827)" font-family="'ArialMT'" font-size="14.1732">25</text>
			<text id="text2226" transform="matrix(1 0 0 1 48.8108 132.2827)" font-family="'ArialMT'" font-size="14.1732">26</text>
			<text id="text2228" transform="matrix(1 0 0 1 77.1565 132.2827)" font-family="'ArialMT'" font-size="14.1732">27</text>
			<text id="text2230" transform="matrix(1 0 0 1 105.5032 132.2827)" font-family="'ArialMT'" font-size="14.1732">28</text>
			<text id="text2232" transform="matrix(1 0 0 1 133.8499 132.2827)" font-family="'ArialMT'" font-size="14.1732">29</text>
			<text id="text2234" transform="matrix(1 0 0 1 162.1956 132.2827)" fill="#787878" font-family="'ArialMT'" font-size="14.1732">30</text>
			<text id="text2236" transform="matrix(1 0 0 1 -7.8825 154.3295)" fill="#787878" font-family="'ArialMT'" font-size="14.1732">31</text>
			<text id="text2238" transform="matrix(1 0 0 1 24.4046 154.3295)" fill="#B0B0B0" font-family="'ArialMT'" font-size="14.1732">1</text>
			<text id="text2240" transform="matrix(1 0 0 1 52.7522 154.3295)" fill="#B0B0B0" font-family="'ArialMT'" font-size="14.1732">2</text>
			<text id="text2242" transform="matrix(1 0 0 1 81.0979 154.3295)" fill="#B0B0B0" font-family="'ArialMT'" font-size="14.1732">3</text>
			<text id="text2244" transform="matrix(1 0 0 1 109.4446 154.3295)" fill="#B0B0B0" font-family="'ArialMT'" font-size="14.1732">4</text>
			<text id="text2246" transform="matrix(1 0 0 1 137.7913 154.3295)" fill="#B0B0B0" font-family="'ArialMT'" font-size="14.1732">5</text>
			<text id="text2248" transform="matrix(1 0 0 1 166.137 154.3295)" fill="#B0B0B0" font-family="'ArialMT'" font-size="14.1732">6</text>
		</g>
	</g>
	<g id="month_4_2013" transform="translate(68.740157,286.61417)">
		
			<text id="text2251" transform="matrix(1 0 0 1 63.5167 4.4082)" fill="#686868" font-family="'Arial-BoldMT'" font-size="18.8976">April</text>
		<g id="g2253">
			<text id="text2255" transform="matrix(1 0 0 1 -8.4062 22.0459)" fill="#909090" font-family="'ArialMT'" font-size="9.4488">Sun</text>
			<text id="text2257" transform="matrix(1 0 0 1 19.1558 22.0459)" fill="#909090" font-family="'ArialMT'" font-size="9.4488">Mon</text>
			<text id="text2259" transform="matrix(1 0 0 1 48.7276 22.0459)" fill="#909090" font-family="'ArialMT'" font-size="9.4488">Tue</text>
			<text id="text2261" transform="matrix(1 0 0 1 75.4107 22.0459)" fill="#909090" font-family="'ArialMT'" font-size="9.4488">Wed</text>
			<text id="text2263" transform="matrix(1 0 0 1 105.2452 22.0459)" fill="#909090" font-family="'ArialMT'" font-size="9.4488">Thu</text>
			<text id="text2265" transform="matrix(1 0 0 1 136.2237 22.0459)" fill="#909090" font-family="'ArialMT'" font-size="9.4488">Fri</text>
			<text id="text2267" transform="matrix(1 0 0 1 162.9874 22.0459)" fill="#909090" font-family="'ArialMT'" font-size="9.4488">Sat</text>
		</g>
		<g id="g2269">
			<text id="text2271" transform="matrix(1 0 0 1 -7.8822 44.0948)" fill="#B0B0B0" font-family="'ArialMT'" font-size="14.1732">31</text>
			<text id="text2273" transform="matrix(1 0 0 1 24.4053 44.0948)" font-family="'ArialMT'" font-size="14.1732">1</text>
			<text id="text2275" transform="matrix(1 0 0 1 52.7515 44.0948)" font-family="'ArialMT'" font-size="14.1732">2</text>
			<text id="text2277" transform="matrix(1 0 0 1 81.0982 44.0948)" font-family="'ArialMT'" font-size="14.1732">3</text>
			<text id="text2279" transform="matrix(1 0 0 1 109.4444 44.0948)" font-family="'ArialMT'" font-size="14.1732">4</text>
			<text id="text2281" transform="matrix(1 0 0 1 137.7911 44.0948)" font-family="'ArialMT'" font-size="14.1732">5</text>
			<text id="text2283" transform="matrix(1 0 0 1 166.1373 44.0948)" fill="#787878" font-family="'ArialMT'" font-size="14.1732">6</text>
			<text id="text2285" transform="matrix(1 0 0 1 -3.9413 66.1407)" fill="#787878" font-family="'ArialMT'" font-size="14.1732">7</text>
			<text id="text2287" transform="matrix(1 0 0 1 24.4053 66.1407)" font-family="'ArialMT'" font-size="14.1732">8</text>
			<text id="text2289" transform="matrix(1 0 0 1 52.7515 66.1407)" font-family="'ArialMT'" font-size="14.1732">9</text>
			<text id="text2291" transform="matrix(1 0 0 1 77.1568 66.1407)" font-family="'ArialMT'" font-size="14.1732">10</text>
			<text id="text2293" transform="matrix(1 0 0 1 106.0294 66.1407)" font-family="'ArialMT'" font-size="14.1732">11</text>
			<text id="text2295" transform="matrix(1 0 0 1 133.8497 66.1407)" font-family="'ArialMT'" font-size="14.1732">12</text>
			<text id="text2297" transform="matrix(1 0 0 1 162.1964 66.1407)" fill="#787878" font-family="'ArialMT'" font-size="14.1732">13</text>
			<text id="text2299" transform="matrix(1 0 0 1 -7.8822 88.1875)" fill="#787878" font-family="'ArialMT'" font-size="14.1732">14</text>
			<text id="text2301" transform="matrix(1 0 0 1 20.4639 88.1875)" font-family="'ArialMT'" font-size="14.1732">15</text>
			<text id="text2303" transform="matrix(1 0 0 1 48.8106 88.1875)" font-family="'ArialMT'" font-size="14.1732">16</text>
			<text id="text2305" transform="matrix(1 0 0 1 77.1568 88.1875)" font-family="'ArialMT'" font-size="14.1732">17</text>
			<text id="text2307" transform="matrix(1 0 0 1 105.5035 88.1875)" font-family="'ArialMT'" font-size="14.1732">18</text>
			<text id="text2309" transform="matrix(1 0 0 1 133.8497 88.1875)" font-family="'ArialMT'" font-size="14.1732">19</text>
			<text id="text2311" transform="matrix(1 0 0 1 162.1964 88.1875)" fill="#787878" font-family="'ArialMT'" font-size="14.1732">20</text>
			<text id="text2313" transform="matrix(1 0 0 1 -7.8822 110.2364)" fill="#787878" font-family="'ArialMT'" font-size="14.1732">21</text>
			<text id="text2315" transform="matrix(1 0 0 1 20.4639 110.2364)" font-family="'ArialMT'" font-size="14.1732">22</text>
			<text id="text2317" transform="matrix(1 0 0 1 48.8106 110.2364)" font-family="'ArialMT'" font-size="14.1732">23</text>
			<text id="text2319" transform="matrix(1 0 0 1 77.1568 110.2364)" font-family="'ArialMT'" font-size="14.1732">24</text>
			<text id="text2321" transform="matrix(1 0 0 1 105.5035 110.2364)" font-family="'ArialMT'" font-size="14.1732">25</text>
			<text id="text2323" transform="matrix(1 0 0 1 133.8497 110.2364)" font-family="'ArialMT'" font-size="14.1732">26</text>
			<text id="text2325" transform="matrix(1 0 0 1 162.1964 110.2364)" fill="#787878" font-family="'ArialMT'" font-size="14.1732">27</text>
			<text id="text2327" transform="matrix(1 0 0 1 -7.8822 132.2832)" fill="#787878" font-family="'ArialMT'" font-size="14.1732">28</text>
			<text id="text2329" transform="matrix(1 0 0 1 20.4639 132.2832)" font-family="'ArialMT'" font-size="14.1732">29</text>
			<text id="text2331" transform="matrix(1 0 0 1 48.8106 132.2832)" font-family="'ArialMT'" font-size="14.1732">30</text>
			<text id="text2333" transform="matrix(1 0 0 1 81.0982 132.2832)" fill="#B0B0B0" font-family="'ArialMT'" font-size="14.1732">1</text>
			<text id="text2335" transform="matrix(1 0 0 1 109.4444 132.2832)" fill="#B0B0B0" font-family="'ArialMT'" font-size="14.1732">2</text>
			<text id="text2337" transform="matrix(1 0 0 1 137.7911 132.2832)" fill="#B0B0B0" font-family="'ArialMT'" font-size="14.1732">3</text>
			<text id="text2339" transform="matrix(1 0 0 1 166.1373 132.2832)" fill="#B0B0B0" font-family="'ArialMT'" font-size="14.1732">4</text>
			<text id="text2341" transform="matrix(1 0 0 1 -3.9413 154.3301)" fill="#B0B0B0" font-family="'ArialMT'" font-size="14.1732">5</text>
			<text id="text2343" transform="matrix(1 0 0 1 24.4053 154.3301)" fill="#B0B0B0" font-family="'ArialMT'" font-size="14.1732">6</text>
			<text id="text2345" transform="matrix(1 0 0 1 52.7515 154.3301)" fill="#B0B0B0" font-family="'ArialMT'" font-size="14.1732">7</text>
			<text id="text2347" transform="matrix(1 0 0 1 81.0982 154.3301)" fill="#B0B0B0" font-family="'ArialMT'" font-size="14.1732">8</text>
			<text id="text2349" transform="matrix(1 0 0 1 109.4444 154.3301)" fill="#B0B0B0" font-family="'ArialMT'" font-size="14.1732">9</text>
			<text id="text2351" transform="matrix(1 0 0 1 133.8497 154.3301)" fill="#B0B0B0" font-family="'ArialMT'" font-size="14.1732">10</text>
			<text id="text2353" transform="matrix(1 0 0 1 162.7222 154.3301)" fill="#B0B0B0" font-family="'ArialMT'" font-size="14.1732">11</text>
		</g>
	</g>
	<g id="month_5_2013" transform="translate(287.00787,286.61417)">
		
			<text id="text2356" transform="matrix(1 0 0 1 66.6586 4.4082)" fill="#686868" font-family="'Arial-BoldMT'" font-size="18.8976">May</text>
		<g id="g2358">
			<text id="text2360" transform="matrix(1 0 0 1 -8.4063 22.0459)" fill="#909090" font-family="'ArialMT'" font-size="9.4488">Sun</text>
			<text id="text2362" transform="matrix(1 0 0 1 19.1562 22.0459)" fill="#909090" font-family="'ArialMT'" font-size="9.4488">Mon</text>
			<text id="text2364" transform="matrix(1 0 0 1 48.727 22.0459)" fill="#909090" font-family="'ArialMT'" font-size="9.4488">Tue</text>
			<text id="text2366" transform="matrix(1 0 0 1 75.4106 22.0459)" fill="#909090" font-family="'ArialMT'" font-size="9.4488">Wed</text>
			<text id="text2368" transform="matrix(1 0 0 1 105.2446 22.0459)" fill="#909090" font-family="'ArialMT'" font-size="9.4488">Thu</text>
			<text id="text2370" transform="matrix(1 0 0 1 136.2231 22.0459)" fill="#909090" font-family="'ArialMT'" font-size="9.4488">Fri</text>
			<text id="text2372" transform="matrix(1 0 0 1 162.9868 22.0459)" fill="#909090" font-family="'ArialMT'" font-size="9.4488">Sat</text>
		</g>
		<g id="g2374">
			<text id="text2376" transform="matrix(1 0 0 1 -7.8824 44.0948)" fill="#B0B0B0" font-family="'ArialMT'" font-size="14.1732">28</text>
			<text id="text2378" transform="matrix(1 0 0 1 20.4638 44.0948)" fill="#B0B0B0" font-family="'ArialMT'" font-size="14.1732">29</text>
			<text id="text2380" transform="matrix(1 0 0 1 48.811 44.0948)" fill="#B0B0B0" font-family="'ArialMT'" font-size="14.1732">30</text>
			<text id="text2382" transform="matrix(1 0 0 1 81.0981 44.0948)" font-family="'ArialMT'" font-size="14.1732">1</text>
			<text id="text2384" transform="matrix(1 0 0 1 109.4448 44.0948)" font-family="'ArialMT'" font-size="14.1732">2</text>
			<text id="text2386" transform="matrix(1 0 0 1 137.7914 44.0948)" font-family="'ArialMT'" font-size="14.1732">3</text>
			<text id="text2388" transform="matrix(1 0 0 1 166.1371 44.0948)" fill="#787878" font-family="'ArialMT'" font-size="14.1732">4</text>
			<text id="text2390" transform="matrix(1 0 0 1 -3.9415 66.1407)" fill="#787878" font-family="'ArialMT'" font-size="14.1732">5</text>
			<text id="text2392" transform="matrix(1 0 0 1 24.4052 66.1407)" font-family="'ArialMT'" font-size="14.1732">6</text>
			<text id="text2394" transform="matrix(1 0 0 1 52.7524 66.1407)" font-family="'ArialMT'" font-size="14.1732">7</text>
			<text id="text2396" transform="matrix(1 0 0 1 81.0981 66.1407)" font-family="'ArialMT'" font-size="14.1732">8</text>
			<text id="text2398" transform="matrix(1 0 0 1 109.4448 66.1407)" font-family="'ArialMT'" font-size="14.1732">9</text>
			<text id="text2400" transform="matrix(1 0 0 1 133.85 66.1407)" font-family="'ArialMT'" font-size="14.1732">10</text>
			<text id="text2402" transform="matrix(1 0 0 1 162.7221 66.1407)" fill="#787878" font-family="'ArialMT'" font-size="14.1732">11</text>
			<text id="text2404" transform="matrix(1 0 0 1 -7.8824 88.1875)" fill="#787878" font-family="'ArialMT'" font-size="14.1732">12</text>
			<text id="text2406" transform="matrix(1 0 0 1 20.4638 88.1875)" font-family="'ArialMT'" font-size="14.1732">13</text>
			<text id="text2408" transform="matrix(1 0 0 1 48.811 88.1875)" font-family="'ArialMT'" font-size="14.1732">14</text>
			<text id="text2410" transform="matrix(1 0 0 1 77.1567 88.1875)" font-family="'ArialMT'" font-size="14.1732">15</text>
			<text id="text2412" transform="matrix(1 0 0 1 105.5034 88.1875)" font-family="'ArialMT'" font-size="14.1732">16</text>
			<text id="text2414" transform="matrix(1 0 0 1 133.85 88.1875)" font-family="'ArialMT'" font-size="14.1732">17</text>
			<text id="text2416" transform="matrix(1 0 0 1 162.1957 88.1875)" fill="#787878" font-family="'ArialMT'" font-size="14.1732">18</text>
			<text id="text2418" transform="matrix(1 0 0 1 -7.8824 110.2364)" fill="#787878" font-family="'ArialMT'" font-size="14.1732">19</text>
			<text id="text2420" transform="matrix(1 0 0 1 20.4638 110.2364)" font-family="'ArialMT'" font-size="14.1732">20</text>
			<text id="text2422" transform="matrix(1 0 0 1 48.811 110.2364)" font-family="'ArialMT'" font-size="14.1732">21</text>
			<text id="text2424" transform="matrix(1 0 0 1 77.1567 110.2364)" font-family="'ArialMT'" font-size="14.1732">22</text>
			<text id="text2426" transform="matrix(1 0 0 1 105.5034 110.2364)" font-family="'ArialMT'" font-size="14.1732">23</text>
			<text id="text2428" transform="matrix(1 0 0 1 133.85 110.2364)" font-family="'ArialMT'" font-size="14.1732">24</text>
			<text id="text2430" transform="matrix(1 0 0 1 162.1957 110.2364)" fill="#787878" font-family="'ArialMT'" font-size="14.1732">25</text>
			<text id="text2432" transform="matrix(1 0 0 1 -7.8824 132.2832)" fill="#787878" font-family="'ArialMT'" font-size="14.1732">26</text>
			<text id="text2434" transform="matrix(1 0 0 1 20.4638 132.2832)" font-family="'ArialMT'" font-size="14.1732">27</text>
			<text id="text2436" transform="matrix(1 0 0 1 48.811 132.2832)" font-family="'ArialMT'" font-size="14.1732">28</text>
			<text id="text2438" transform="matrix(1 0 0 1 77.1567 132.2832)" font-family="'ArialMT'" font-size="14.1732">29</text>
			<text id="text2440" transform="matrix(1 0 0 1 105.5034 132.2832)" font-family="'ArialMT'" font-size="14.1732">30</text>
			<text id="text2442" transform="matrix(1 0 0 1 133.85 132.2832)" font-family="'ArialMT'" font-size="14.1732">31</text>
			<text id="text2444" transform="matrix(1 0 0 1 166.1371 132.2832)" fill="#B0B0B0" font-family="'ArialMT'" font-size="14.1732">1</text>
			<text id="text2446" transform="matrix(1 0 0 1 -3.9415 154.3301)" fill="#B0B0B0" font-family="'ArialMT'" font-size="14.1732">2</text>
			<text id="text2448" transform="matrix(1 0 0 1 24.4052 154.3301)" fill="#B0B0B0" font-family="'ArialMT'" font-size="14.1732">3</text>
			<text id="text2450" transform="matrix(1 0 0 1 52.7524 154.3301)" fill="#B0B0B0" font-family="'ArialMT'" font-size="14.1732">4</text>
			<text id="text2452" transform="matrix(1 0 0 1 81.0981 154.3301)" fill="#B0B0B0" font-family="'ArialMT'" font-size="14.1732">5</text>
			<text id="text2454" transform="matrix(1 0 0 1 109.4448 154.3301)" fill="#B0B0B0" font-family="'ArialMT'" font-size="14.1732">6</text>
			<text id="text2456" transform="matrix(1 0 0 1 137.7914 154.3301)" fill="#B0B0B0" font-family="'ArialMT'" font-size="14.1732">7</text>
			<text id="text2458" transform="matrix(1 0 0 1 166.1371 154.3301)" fill="#B0B0B0" font-family="'ArialMT'" font-size="14.1732">8</text>
		</g>
	</g>
	<g id="month_6_2013" transform="translate(505.27559,286.61417)">
		
			<text id="text2461" transform="matrix(1 0 0 1 62.9866 4.4082)" fill="#686868" font-family="'Arial-BoldMT'" font-size="18.8976">June</text>
		<g id="g2463">
			<text id="text2465" transform="matrix(1 0 0 1 -8.406 22.0459)" fill="#909090" font-family="'ArialMT'" font-size="9.4488">Sun</text>
			<text id="text2467" transform="matrix(1 0 0 1 19.1565 22.0459)" fill="#909090" font-family="'ArialMT'" font-size="9.4488">Mon</text>
			<text id="text2469" transform="matrix(1 0 0 1 48.7268 22.0459)" fill="#909090" font-family="'ArialMT'" font-size="9.4488">Tue</text>
			<text id="text2471" transform="matrix(1 0 0 1 75.4104 22.0459)" fill="#909090" font-family="'ArialMT'" font-size="9.4488">Wed</text>
			<text id="text2473" transform="matrix(1 0 0 1 105.2444 22.0459)" fill="#909090" font-family="'ArialMT'" font-size="9.4488">Thu</text>
			<text id="text2475" transform="matrix(1 0 0 1 136.2229 22.0459)" fill="#909090" font-family="'ArialMT'" font-size="9.4488">Fri</text>
			<text id="text2477" transform="matrix(1 0 0 1 162.9876 22.0459)" fill="#909090" font-family="'ArialMT'" font-size="9.4488">Sat</text>
		</g>
		<g id="g2479">
			<text id="text2481" transform="matrix(1 0 0 1 -7.8825 44.0948)" fill="#B0B0B0" font-family="'ArialMT'" font-size="14.1732">26</text>
			<text id="text2483" transform="matrix(1 0 0 1 20.4641 44.0948)" fill="#B0B0B0" font-family="'ArialMT'" font-size="14.1732">27</text>
			<text id="text2485" transform="matrix(1 0 0 1 48.8108 44.0948)" fill="#B0B0B0" font-family="'ArialMT'" font-size="14.1732">28</text>
			<text id="text2487" transform="matrix(1 0 0 1 77.1565 44.0948)" fill="#B0B0B0" font-family="'ArialMT'" font-size="14.1732">29</text>
			<text id="text2489" transform="matrix(1 0 0 1 105.5032 44.0948)" fill="#B0B0B0" font-family="'ArialMT'" font-size="14.1732">30</text>
			<text id="text2491" transform="matrix(1 0 0 1 133.8499 44.0948)" fill="#B0B0B0" font-family="'ArialMT'" font-size="14.1732">31</text>
			<text id="text2493" transform="matrix(1 0 0 1 166.137 44.0948)" fill="#787878" font-family="'ArialMT'" font-size="14.1732">1</text>
			<text id="text2495" transform="matrix(1 0 0 1 -3.9411 66.1407)" fill="#787878" font-family="'ArialMT'" font-size="14.1732">2</text>
			<text id="text2497" transform="matrix(1 0 0 1 24.4046 66.1407)" font-family="'ArialMT'" font-size="14.1732">3</text>
			<text id="text2499" transform="matrix(1 0 0 1 52.7522 66.1407)" font-family="'ArialMT'" font-size="14.1732">4</text>
			<text id="text2501" transform="matrix(1 0 0 1 81.0979 66.1407)" font-family="'ArialMT'" font-size="14.1732">5</text>
			<text id="text2503" transform="matrix(1 0 0 1 109.4446 66.1407)" font-family="'ArialMT'" font-size="14.1732">6</text>
			<text id="text2505" transform="matrix(1 0 0 1 137.7913 66.1407)" font-family="'ArialMT'" font-size="14.1732">7</text>
			<text id="text2507" transform="matrix(1 0 0 1 166.137 66.1407)" fill="#787878" font-family="'ArialMT'" font-size="14.1732">8</text>
			<text id="text2509" transform="matrix(1 0 0 1 -3.9411 88.1875)" fill="#787878" font-family="'ArialMT'" font-size="14.1732">9</text>
			<text id="text2511" transform="matrix(1 0 0 1 20.4641 88.1875)" font-family="'ArialMT'" font-size="14.1732">10</text>
			<text id="text2513" transform="matrix(1 0 0 1 49.3362 88.1875)" font-family="'ArialMT'" font-size="14.1732">11</text>
			<text id="text2515" transform="matrix(1 0 0 1 77.1565 88.1875)" font-family="'ArialMT'" font-size="14.1732">12</text>
			<text id="text2517" transform="matrix(1 0 0 1 105.5032 88.1875)" font-family="'ArialMT'" font-size="14.1732">13</text>
			<text id="text2519" transform="matrix(1 0 0 1 133.8499 88.1875)" font-family="'ArialMT'" font-size="14.1732">14</text>
			<text id="text2521" transform="matrix(1 0 0 1 162.1956 88.1875)" fill="#787878" font-family="'ArialMT'" font-size="14.1732">15</text>
			<text id="text2523" transform="matrix(1 0 0 1 -7.8825 110.2364)" fill="#787878" font-family="'ArialMT'" font-size="14.1732">16</text>
			<text id="text2525" transform="matrix(1 0 0 1 20.4641 110.2364)" font-family="'ArialMT'" font-size="14.1732">17</text>
			<text id="text2527" transform="matrix(1 0 0 1 48.8108 110.2364)" font-family="'ArialMT'" font-size="14.1732">18</text>
			<text id="text2529" transform="matrix(1 0 0 1 77.1565 110.2364)" font-family="'ArialMT'" font-size="14.1732">19</text>
			<text id="text2531" transform="matrix(1 0 0 1 105.5032 110.2364)" font-family="'ArialMT'" font-size="14.1732">20</text>
			<text id="text2533" transform="matrix(1 0 0 1 133.8499 110.2364)" font-family="'ArialMT'" font-size="14.1732">21</text>
			<text id="text2535" transform="matrix(1 0 0 1 162.1956 110.2364)" fill="#787878" font-family="'ArialMT'" font-size="14.1732">22</text>
			<text id="text2537" transform="matrix(1 0 0 1 -7.8825 132.2832)" fill="#787878" font-family="'ArialMT'" font-size="14.1732">23</text>
			<text id="text2539" transform="matrix(1 0 0 1 20.4641 132.2832)" font-family="'ArialMT'" font-size="14.1732">24</text>
			<text id="text2541" transform="matrix(1 0 0 1 48.8108 132.2832)" font-family="'ArialMT'" font-size="14.1732">25</text>
			<text id="text2543" transform="matrix(1 0 0 1 77.1565 132.2832)" font-family="'ArialMT'" font-size="14.1732">26</text>
			<text id="text2545" transform="matrix(1 0 0 1 105.5032 132.2832)" font-family="'ArialMT'" font-size="14.1732">27</text>
			<text id="text2547" transform="matrix(1 0 0 1 133.8499 132.2832)" font-family="'ArialMT'" font-size="14.1732">28</text>
			<text id="text2549" transform="matrix(1 0 0 1 162.1956 132.2832)" fill="#787878" font-family="'ArialMT'" font-size="14.1732">29</text>
			<text id="text2551" transform="matrix(1 0 0 1 -7.8825 154.3301)" fill="#787878" font-family="'ArialMT'" font-size="14.1732">30</text>
			<text id="text2553" transform="matrix(1 0 0 1 24.4046 154.3301)" fill="#B0B0B0" font-family="'ArialMT'" font-size="14.1732">1</text>
			<text id="text2555" transform="matrix(1 0 0 1 52.7522 154.3301)" fill="#B0B0B0" font-family="'ArialMT'" font-size="14.1732">2</text>
			<text id="text2557" transform="matrix(1 0 0 1 81.0979 154.3301)" fill="#B0B0B0" font-family="'ArialMT'" font-size="14.1732">3</text>
			<text id="text2559" transform="matrix(1 0 0 1 109.4446 154.3301)" fill="#B0B0B0" font-family="'ArialMT'" font-size="14.1732">4</text>
			<text id="text2561" transform="matrix(1 0 0 1 137.7913 154.3301)" fill="#B0B0B0" font-family="'ArialMT'" font-size="14.1732">5</text>
			<text id="text2563" transform="matrix(1 0 0 1 166.137 154.3301)" fill="#B0B0B0" font-family="'ArialMT'" font-size="14.1732">6</text>
		</g>
	</g>
	<g id="month_7_2013" transform="translate(68.740157,485.03937)">
		
			<text id="text2566" transform="matrix(1 0 0 1 66.1324 4.4088)" fill="#686868" font-family="'Arial-BoldMT'" font-size="18.8976">July</text>
		<g id="g2568">
			<text id="text2570" transform="matrix(1 0 0 1 -8.4062 22.0475)" fill="#909090" font-family="'ArialMT'" font-size="9.4488">Sun</text>
			<text id="text2572" transform="matrix(1 0 0 1 19.1558 22.0475)" fill="#909090" font-family="'ArialMT'" font-size="9.4488">Mon</text>
			<text id="text2574" transform="matrix(1 0 0 1 48.7276 22.0475)" fill="#909090" font-family="'ArialMT'" font-size="9.4488">Tue</text>
			<text id="text2576" transform="matrix(1 0 0 1 75.4107 22.0475)" fill="#909090" font-family="'ArialMT'" font-size="9.4488">Wed</text>
			<text id="text2578" transform="matrix(1 0 0 1 105.2452 22.0475)" fill="#909090" font-family="'ArialMT'" font-size="9.4488">Thu</text>
			<text id="text2580" transform="matrix(1 0 0 1 136.2237 22.0475)" fill="#909090" font-family="'ArialMT'" font-size="9.4488">Fri</text>
			<text id="text2582" transform="matrix(1 0 0 1 162.9874 22.0475)" fill="#909090" font-family="'ArialMT'" font-size="9.4488">Sat</text>
		</g>
		<g id="g2584">
			<text id="text2586" transform="matrix(1 0 0 1 -7.8822 44.0944)" fill="#B0B0B0" font-family="'ArialMT'" font-size="14.1732">30</text>
			<text id="text2588" transform="matrix(1 0 0 1 24.4053 44.0944)" font-family="'ArialMT'" font-size="14.1732">1</text>
			<text id="text2590" transform="matrix(1 0 0 1 52.7515 44.0944)" font-family="'ArialMT'" font-size="14.1732">2</text>
			<text id="text2592" transform="matrix(1 0 0 1 81.0982 44.0944)" font-family="'ArialMT'" font-size="14.1732">3</text>
			<text id="text2594" transform="matrix(1 0 0 1 109.4444 44.0944)" font-family="'ArialMT'" font-size="14.1732">4</text>
			<text id="text2596" transform="matrix(1 0 0 1 137.7911 44.0944)" font-family="'ArialMT'" font-size="14.1732">5</text>
			<text id="text2598" transform="matrix(1 0 0 1 166.1373 44.0944)" fill="#787878" font-family="'ArialMT'" font-size="14.1732">6</text>
			<text id="text2600" transform="matrix(1 0 0 1 -3.9413 66.1412)" fill="#787878" font-family="'ArialMT'" font-size="14.1732">7</text>
			<text id="text2602" transform="matrix(1 0 0 1 24.4053 66.1412)" font-family="'ArialMT'" font-size="14.1732">8</text>
			<text id="text2604" transform="matrix(1 0 0 1 52.7515 66.1412)" font-family="'ArialMT'" font-size="14.1732">9</text>
			<text id="text2606" transform="matrix(1 0 0 1 77.1568 66.1412)" font-family="'ArialMT'" font-size="14.1732">10</text>
			<text id="text2608" transform="matrix(1 0 0 1 106.0294 66.1412)" font-family="'ArialMT'" font-size="14.1732">11</text>
			<text id="text2610" transform="matrix(1 0 0 1 133.8497 66.1412)" font-family="'ArialMT'" font-size="14.1732">12</text>
			<text id="text2612" transform="matrix(1 0 0 1 162.1964 66.1412)" fill="#787878" font-family="'ArialMT'" font-size="14.1732">13</text>
			<text id="text2614" transform="matrix(1 0 0 1 -7.8822 88.1881)" fill="#787878" font-family="'ArialMT'" font-size="14.1732">14</text>
			<text id="text2616" transform="matrix(1 0 0 1 20.4639 88.1881)" font-family="'ArialMT'" font-size="14.1732">15</text>
			<text id="text2618" transform="matrix(1 0 0 1 48.8106 88.1881)" font-family="'ArialMT'" font-size="14.1732">16</text>
			<text id="text2620" transform="matrix(1 0 0 1 77.1568 88.1881)" font-family="'ArialMT'" font-size="14.1732">17</text>
			<text id="text2622" transform="matrix(1 0 0 1 105.5035 88.1881)" font-family="'ArialMT'" font-size="14.1732">18</text>
			<text id="text2624" transform="matrix(1 0 0 1 133.8497 88.1881)" font-family="'ArialMT'" font-size="14.1732">19</text>
			<text id="text2626" transform="matrix(1 0 0 1 162.1964 88.1881)" fill="#787878" font-family="'ArialMT'" font-size="14.1732">20</text>
			<text id="text2628" transform="matrix(1 0 0 1 -7.8822 110.235)" fill="#787878" font-family="'ArialMT'" font-size="14.1732">21</text>
			<text id="text2630" transform="matrix(1 0 0 1 20.4639 110.235)" font-family="'ArialMT'" font-size="14.1732">22</text>
			<text id="text2632" transform="matrix(1 0 0 1 48.8106 110.235)" font-family="'ArialMT'" font-size="14.1732">23</text>
			<text id="text2634" transform="matrix(1 0 0 1 77.1568 110.235)" font-family="'ArialMT'" font-size="14.1732">24</text>
			<text id="text2636" transform="matrix(1 0 0 1 105.5035 110.235)" font-family="'ArialMT'" font-size="14.1732">25</text>
			<text id="text2638" transform="matrix(1 0 0 1 133.8497 110.235)" font-family="'ArialMT'" font-size="14.1732">26</text>
			<text id="text2640" transform="matrix(1 0 0 1 162.1964 110.235)" fill="#787878" font-family="'ArialMT'" font-size="14.1732">27</text>
			<text id="text2642" transform="matrix(1 0 0 1 -7.8822 132.2838)" fill="#787878" font-family="'ArialMT'" font-size="14.1732">28</text>
			<text id="text2644" transform="matrix(1 0 0 1 20.4639 132.2838)" font-family="'ArialMT'" font-size="14.1732">29</text>
			<text id="text2646" transform="matrix(1 0 0 1 48.8106 132.2838)" font-family="'ArialMT'" font-size="14.1732">30</text>
			<text id="text2648" transform="matrix(1 0 0 1 77.1568 132.2838)" font-family="'ArialMT'" font-size="14.1732">31</text>
			<text id="text2650" transform="matrix(1 0 0 1 109.4444 132.2838)" fill="#B0B0B0" font-family="'ArialMT'" font-size="14.1732">1</text>
			<text id="text2652" transform="matrix(1 0 0 1 137.7911 132.2838)" fill="#B0B0B0" font-family="'ArialMT'" font-size="14.1732">2</text>
			<text id="text2654" transform="matrix(1 0 0 1 166.1373 132.2838)" fill="#B0B0B0" font-family="'ArialMT'" font-size="14.1732">3</text>
			<text id="text2656" transform="matrix(1 0 0 1 -3.9413 154.3307)" fill="#B0B0B0" font-family="'ArialMT'" font-size="14.1732">4</text>
			<text id="text2658" transform="matrix(1 0 0 1 24.4053 154.3307)" fill="#B0B0B0" font-family="'ArialMT'" font-size="14.1732">5</text>
			<text id="text2660" transform="matrix(1 0 0 1 52.7515 154.3307)" fill="#B0B0B0" font-family="'ArialMT'" font-size="14.1732">6</text>
			<text id="text2662" transform="matrix(1 0 0 1 81.0982 154.3307)" fill="#B0B0B0" font-family="'ArialMT'" font-size="14.1732">7</text>
			<text id="text2664" transform="matrix(1 0 0 1 109.4444 154.3307)" fill="#B0B0B0" font-family="'ArialMT'" font-size="14.1732">8</text>
			<text id="text2666" transform="matrix(1 0 0 1 137.7911 154.3307)" fill="#B0B0B0" font-family="'ArialMT'" font-size="14.1732">9</text>
			<text id="text2668" transform="matrix(1 0 0 1 162.1964 154.3307)" fill="#B0B0B0" font-family="'ArialMT'" font-size="14.1732">10</text>
		</g>
	</g>
	<g id="month_8_2013" transform="translate(287.00787,485.03937)">
		
			<text id="text2671" transform="matrix(1 0 0 1 52.4985 4.4088)" fill="#686868" font-family="'Arial-BoldMT'" font-size="18.8976">August</text>
		<g id="g2673">
			<text id="text2675" transform="matrix(1 0 0 1 -8.4063 22.0475)" fill="#909090" font-family="'ArialMT'" font-size="9.4488">Sun</text>
			<text id="text2677" transform="matrix(1 0 0 1 19.1562 22.0475)" fill="#909090" font-family="'ArialMT'" font-size="9.4488">Mon</text>
			<text id="text2679" transform="matrix(1 0 0 1 48.727 22.0475)" fill="#909090" font-family="'ArialMT'" font-size="9.4488">Tue</text>
			<text id="text2681" transform="matrix(1 0 0 1 75.4106 22.0475)" fill="#909090" font-family="'ArialMT'" font-size="9.4488">Wed</text>
			<text id="text2683" transform="matrix(1 0 0 1 105.2446 22.0475)" fill="#909090" font-family="'ArialMT'" font-size="9.4488">Thu</text>
			<text id="text2685" transform="matrix(1 0 0 1 136.2231 22.0475)" fill="#909090" font-family="'ArialMT'" font-size="9.4488">Fri</text>
			<text id="text2687" transform="matrix(1 0 0 1 162.9868 22.0475)" fill="#909090" font-family="'ArialMT'" font-size="9.4488">Sat</text>
		</g>
		<g id="g2689">
			<text id="text2691" transform="matrix(1 0 0 1 -7.8824 44.0944)" fill="#B0B0B0" font-family="'ArialMT'" font-size="14.1732">28</text>
			<text id="text2693" transform="matrix(1 0 0 1 20.4638 44.0944)" fill="#B0B0B0" font-family="'ArialMT'" font-size="14.1732">29</text>
			<text id="text2695" transform="matrix(1 0 0 1 48.811 44.0944)" fill="#B0B0B0" font-family="'ArialMT'" font-size="14.1732">30</text>
			<text id="text2697" transform="matrix(1 0 0 1 77.1567 44.0944)" fill="#B0B0B0" font-family="'ArialMT'" font-size="14.1732">31</text>
			<text id="text2699" transform="matrix(1 0 0 1 109.4448 44.0944)" font-family="'ArialMT'" font-size="14.1732">1</text>
			<text id="text2701" transform="matrix(1 0 0 1 137.7914 44.0944)" font-family="'ArialMT'" font-size="14.1732">2</text>
			<text id="text2703" transform="matrix(1 0 0 1 166.1371 44.0944)" fill="#787878" font-family="'ArialMT'" font-size="14.1732">3</text>
			<text id="text2705" transform="matrix(1 0 0 1 -3.9415 66.1412)" fill="#787878" font-family="'ArialMT'" font-size="14.1732">4</text>
			<text id="text2707" transform="matrix(1 0 0 1 24.4052 66.1412)" font-family="'ArialMT'" font-size="14.1732">5</text>
			<text id="text2709" transform="matrix(1 0 0 1 52.7524 66.1412)" font-family="'ArialMT'" font-size="14.1732">6</text>
			<text id="text2711" transform="matrix(1 0 0 1 81.0981 66.1412)" font-family="'ArialMT'" font-size="14.1732">7</text>
			<text id="text2713" transform="matrix(1 0 0 1 109.4448 66.1412)" font-family="'ArialMT'" font-size="14.1732">8</text>
			<text id="text2715" transform="matrix(1 0 0 1 137.7914 66.1412)" font-family="'ArialMT'" font-size="14.1732">9</text>
			<text id="text2717" transform="matrix(1 0 0 1 162.1957 66.1412)" fill="#787878" font-family="'ArialMT'" font-size="14.1732">10</text>
			<text id="text2719" transform="matrix(1 0 0 1 -7.3565 88.1881)" fill="#787878" font-family="'ArialMT'" font-size="14.1732">11</text>
			<text id="text2721" transform="matrix(1 0 0 1 20.4638 88.1881)" font-family="'ArialMT'" font-size="14.1732">12</text>
			<text id="text2723" transform="matrix(1 0 0 1 48.811 88.1881)" font-family="'ArialMT'" font-size="14.1732">13</text>
			<text id="text2725" transform="matrix(1 0 0 1 77.1567 88.1881)" font-family="'ArialMT'" font-size="14.1732">14</text>
			<text id="text2727" transform="matrix(1 0 0 1 105.5034 88.1881)" font-family="'ArialMT'" font-size="14.1732">15</text>
			<text id="text2729" transform="matrix(1 0 0 1 133.85 88.1881)" font-family="'ArialMT'" font-size="14.1732">16</text>
			<text id="text2731" transform="matrix(1 0 0 1 162.1957 88.1881)" fill="#787878" font-family="'ArialMT'" font-size="14.1732">17</text>
			<text id="text2733" transform="matrix(1 0 0 1 -7.8824 110.235)" fill="#787878" font-family="'ArialMT'" font-size="14.1732">18</text>
			<text id="text2735" transform="matrix(1 0 0 1 20.4638 110.235)" font-family="'ArialMT'" font-size="14.1732">19</text>
			<text id="text2737" transform="matrix(1 0 0 1 48.811 110.235)" font-family="'ArialMT'" font-size="14.1732">20</text>
			<text id="text2739" transform="matrix(1 0 0 1 77.1567 110.235)" font-family="'ArialMT'" font-size="14.1732">21</text>
			<text id="text2741" transform="matrix(1 0 0 1 105.5034 110.235)" font-family="'ArialMT'" font-size="14.1732">22</text>
			<text id="text2743" transform="matrix(1 0 0 1 133.85 110.235)" font-family="'ArialMT'" font-size="14.1732">23</text>
			<text id="text2745" transform="matrix(1 0 0 1 162.1957 110.235)" fill="#787878" font-family="'ArialMT'" font-size="14.1732">24</text>
			<text id="text2747" transform="matrix(1 0 0 1 -7.8824 132.2838)" fill="#787878" font-family="'ArialMT'" font-size="14.1732">25</text>
			<text id="text2749" transform="matrix(1 0 0 1 20.4638 132.2838)" font-family="'ArialMT'" font-size="14.1732">26</text>
			<text id="text2751" transform="matrix(1 0 0 1 48.811 132.2838)" font-family="'ArialMT'" font-size="14.1732">27</text>
			<text id="text2753" transform="matrix(1 0 0 1 77.1567 132.2838)" font-family="'ArialMT'" font-size="14.1732">28</text>
			<text id="text2755" transform="matrix(1 0 0 1 105.5034 132.2838)" font-family="'ArialMT'" font-size="14.1732">29</text>
			<text id="text2757" transform="matrix(1 0 0 1 133.85 132.2838)" font-family="'ArialMT'" font-size="14.1732">30</text>
			<text id="text2759" transform="matrix(1 0 0 1 162.1957 132.2838)" fill="#787878" font-family="'ArialMT'" font-size="14.1732">31</text>
			<text id="text2761" transform="matrix(1 0 0 1 -3.9415 154.3307)" fill="#B0B0B0" font-family="'ArialMT'" font-size="14.1732">1</text>
			<text id="text2763" transform="matrix(1 0 0 1 24.4052 154.3307)" fill="#B0B0B0" font-family="'ArialMT'" font-size="14.1732">2</text>
			<text id="text2765" transform="matrix(1 0 0 1 52.7524 154.3307)" fill="#B0B0B0" font-family="'ArialMT'" font-size="14.1732">3</text>
			<text id="text2767" transform="matrix(1 0 0 1 81.0981 154.3307)" fill="#B0B0B0" font-family="'ArialMT'" font-size="14.1732">4</text>
			<text id="text2769" transform="matrix(1 0 0 1 109.4448 154.3307)" fill="#B0B0B0" font-family="'ArialMT'" font-size="14.1732">5</text>
			<text id="text2771" transform="matrix(1 0 0 1 137.7914 154.3307)" fill="#B0B0B0" font-family="'ArialMT'" font-size="14.1732">6</text>
			<text id="text2773" transform="matrix(1 0 0 1 166.1371 154.3307)" fill="#B0B0B0" font-family="'ArialMT'" font-size="14.1732">7</text>
		</g>
	</g>
	<g id="month_9_2013" transform="translate(505.27559,485.03937)">
		
			<text id="text2776" transform="matrix(1 0 0 1 36.2034 4.4088)" fill="#686868" font-family="'Arial-BoldMT'" font-size="18.8976">September</text>
		<g id="g2778">
			<text id="text2780" transform="matrix(1 0 0 1 -8.406 22.0475)" fill="#909090" font-family="'ArialMT'" font-size="9.4488">Sun</text>
			<text id="text2782" transform="matrix(1 0 0 1 19.1565 22.0475)" fill="#909090" font-family="'ArialMT'" font-size="9.4488">Mon</text>
			<text id="text2784" transform="matrix(1 0 0 1 48.7268 22.0475)" fill="#909090" font-family="'ArialMT'" font-size="9.4488">Tue</text>
			<text id="text2786" transform="matrix(1 0 0 1 75.4104 22.0475)" fill="#909090" font-family="'ArialMT'" font-size="9.4488">Wed</text>
			<text id="text2788" transform="matrix(1 0 0 1 105.2444 22.0475)" fill="#909090" font-family="'ArialMT'" font-size="9.4488">Thu</text>
			<text id="text2790" transform="matrix(1 0 0 1 136.2229 22.0475)" fill="#909090" font-family="'ArialMT'" font-size="9.4488">Fri</text>
			<text id="text2792" transform="matrix(1 0 0 1 162.9876 22.0475)" fill="#909090" font-family="'ArialMT'" font-size="9.4488">Sat</text>
		</g>
		<g id="g2794">
			<text id="text2796" transform="matrix(1 0 0 1 -3.9411 44.0944)" fill="#787878" font-family="'ArialMT'" font-size="14.1732">1</text>
			<text id="text2798" transform="matrix(1 0 0 1 24.4046 44.0944)" font-family="'ArialMT'" font-size="14.1732">2</text>
			<text id="text2800" transform="matrix(1 0 0 1 52.7522 44.0944)" font-family="'ArialMT'" font-size="14.1732">3</text>
			<text id="text2802" transform="matrix(1 0 0 1 81.0979 44.0944)" font-family="'ArialMT'" font-size="14.1732">4</text>
			<text id="text2804" transform="matrix(1 0 0 1 109.4446 44.0944)" font-family="'ArialMT'" font-size="14.1732">5</text>
			<text id="text2806" transform="matrix(1 0 0 1 137.7913 44.0944)" font-family="'ArialMT'" font-size="14.1732">6</text>
			<text id="text2808" transform="matrix(1 0 0 1 166.137 44.0944)" fill="#787878" font-family="'ArialMT'" font-size="14.1732">7</text>
			<text id="text2810" transform="matrix(1 0 0 1 -3.9411 66.1412)" fill="#787878" font-family="'ArialMT'" font-size="14.1732">8</text>
			<text id="text2812" transform="matrix(1 0 0 1 24.4046 66.1412)" font-family="'ArialMT'" font-size="14.1732">9</text>
			<text id="text2814" transform="matrix(1 0 0 1 48.8108 66.1412)" font-family="'ArialMT'" font-size="14.1732">10</text>
			<text id="text2816" transform="matrix(1 0 0 1 77.6829 66.1412)" font-family="'ArialMT'" font-size="14.1732">11</text>
			<text id="text2818" transform="matrix(1 0 0 1 105.5032 66.1412)" font-family="'ArialMT'" font-size="14.1732">12</text>
			<text id="text2820" transform="matrix(1 0 0 1 133.8499 66.1412)" font-family="'ArialMT'" font-size="14.1732">13</text>
			<text id="text2822" transform="matrix(1 0 0 1 162.1956 66.1412)" fill="#787878" font-family="'ArialMT'" font-size="14.1732">14</text>
			<text id="text2824" transform="matrix(1 0 0 1 -7.8825 88.1881)" fill="#787878" font-family="'ArialMT'" font-size="14.1732">15</text>
			<text id="text2826" transform="matrix(1 0 0 1 20.4641 88.1881)" font-family="'ArialMT'" font-size="14.1732">16</text>
			<text id="text2828" transform="matrix(1 0 0 1 48.8108 88.1881)" font-family="'ArialMT'" font-size="14.1732">17</text>
			<text id="text2830" transform="matrix(1 0 0 1 77.1565 88.1881)" font-family="'ArialMT'" font-size="14.1732">18</text>
			<text id="text2832" transform="matrix(1 0 0 1 105.5032 88.1881)" font-family="'ArialMT'" font-size="14.1732">19</text>
			<text id="text2834" transform="matrix(1 0 0 1 133.8499 88.1881)" font-family="'ArialMT'" font-size="14.1732">20</text>
			<text id="text2836" transform="matrix(1 0 0 1 162.1956 88.1881)" fill="#787878" font-family="'ArialMT'" font-size="14.1732">21</text>
			<text id="text2838" transform="matrix(1 0 0 1 -7.8825 110.235)" fill="#787878" font-family="'ArialMT'" font-size="14.1732">22</text>
			<text id="text2840" transform="matrix(1 0 0 1 20.4641 110.235)" font-family="'ArialMT'" font-size="14.1732">23</text>
			<text id="text2842" transform="matrix(1 0 0 1 48.8108 110.235)" font-family="'ArialMT'" font-size="14.1732">24</text>
			<text id="text2844" transform="matrix(1 0 0 1 77.1565 110.235)" font-family="'ArialMT'" font-size="14.1732">25</text>
			<text id="text2846" transform="matrix(1 0 0 1 105.5032 110.235)" font-family="'ArialMT'" font-size="14.1732">26</text>
			<text id="text2848" transform="matrix(1 0 0 1 133.8499 110.235)" font-family="'ArialMT'" font-size="14.1732">27</text>
			<text id="text2850" transform="matrix(1 0 0 1 162.1956 110.235)" fill="#787878" font-family="'ArialMT'" font-size="14.1732">28</text>
			<text id="text2852" transform="matrix(1 0 0 1 -7.8825 132.2838)" fill="#787878" font-family="'ArialMT'" font-size="14.1732">29</text>
			<text id="text2854" transform="matrix(1 0 0 1 20.4641 132.2838)" font-family="'ArialMT'" font-size="14.1732">30</text>
			<text id="text2856" transform="matrix(1 0 0 1 52.7522 132.2838)" fill="#B0B0B0" font-family="'ArialMT'" font-size="14.1732">1</text>
			<text id="text2858" transform="matrix(1 0 0 1 81.0979 132.2838)" fill="#B0B0B0" font-family="'ArialMT'" font-size="14.1732">2</text>
			<text id="text2860" transform="matrix(1 0 0 1 109.4446 132.2838)" fill="#B0B0B0" font-family="'ArialMT'" font-size="14.1732">3</text>
			<text id="text2862" transform="matrix(1 0 0 1 137.7913 132.2838)" fill="#B0B0B0" font-family="'ArialMT'" font-size="14.1732">4</text>
			<text id="text2864" transform="matrix(1 0 0 1 166.137 132.2838)" fill="#B0B0B0" font-family="'ArialMT'" font-size="14.1732">5</text>
			<text id="text2866" transform="matrix(1 0 0 1 -3.9411 154.3307)" fill="#B0B0B0" font-family="'ArialMT'" font-size="14.1732">6</text>
			<text id="text2868" transform="matrix(1 0 0 1 24.4046 154.3307)" fill="#B0B0B0" font-family="'ArialMT'" font-size="14.1732">7</text>
			<text id="text2870" transform="matrix(1 0 0 1 52.7522 154.3307)" fill="#B0B0B0" font-family="'ArialMT'" font-size="14.1732">8</text>
			<text id="text2872" transform="matrix(1 0 0 1 81.0979 154.3307)" fill="#B0B0B0" font-family="'ArialMT'" font-size="14.1732">9</text>
			<text id="text2874" transform="matrix(1 0 0 1 105.5032 154.3307)" fill="#B0B0B0" font-family="'ArialMT'" font-size="14.1732">10</text>
			<text id="text2876" transform="matrix(1 0 0 1 134.3753 154.3307)" fill="#B0B0B0" font-family="'ArialMT'" font-size="14.1732">11</text>
			<text id="text2878" transform="matrix(1 0 0 1 162.1956 154.3307)" fill="#B0B0B0" font-family="'ArialMT'" font-size="14.1732">12</text>
		</g>
	</g>
	<g id="month_10_2013" transform="translate(68.740157,683.46457)">
		
			<text id="text2881" transform="matrix(1 0 0 1 48.8126 4.4094)" fill="#686868" font-family="'Arial-BoldMT'" font-size="18.8976">October</text>
		<g id="g2883">
			<text id="text2885" transform="matrix(1 0 0 1 -8.4062 22.0461)" fill="#909090" font-family="'ArialMT'" font-size="9.4488">Sun</text>
			<text id="text2887" transform="matrix(1 0 0 1 19.1558 22.0461)" fill="#909090" font-family="'ArialMT'" font-size="9.4488">Mon</text>
			<text id="text2889" transform="matrix(1 0 0 1 48.7276 22.0461)" fill="#909090" font-family="'ArialMT'" font-size="9.4488">Tue</text>
			<text id="text2891" transform="matrix(1 0 0 1 75.4107 22.0461)" fill="#909090" font-family="'ArialMT'" font-size="9.4488">Wed</text>
			<text id="text2893" transform="matrix(1 0 0 1 105.2452 22.0461)" fill="#909090" font-family="'ArialMT'" font-size="9.4488">Thu</text>
			<text id="text2895" transform="matrix(1 0 0 1 136.2237 22.0461)" fill="#909090" font-family="'ArialMT'" font-size="9.4488">Fri</text>
			<text id="text2897" transform="matrix(1 0 0 1 162.9874 22.0461)" fill="#909090" font-family="'ArialMT'" font-size="9.4488">Sat</text>
		</g>
		<g id="g2899">
			<text id="text2901" transform="matrix(1 0 0 1 -7.8822 44.0949)" fill="#B0B0B0" font-family="'ArialMT'" font-size="14.1732">29</text>
			<text id="text2903" transform="matrix(1 0 0 1 20.4639 44.0949)" fill="#B0B0B0" font-family="'ArialMT'" font-size="14.1732">30</text>
			<text id="text2905" transform="matrix(1 0 0 1 52.7515 44.0949)" font-family="'ArialMT'" font-size="14.1732">1</text>
			<text id="text2907" transform="matrix(1 0 0 1 81.0982 44.0949)" font-family="'ArialMT'" font-size="14.1732">2</text>
			<text id="text2909" transform="matrix(1 0 0 1 109.4444 44.0949)" font-family="'ArialMT'" font-size="14.1732">3</text>
			<text id="text2911" transform="matrix(1 0 0 1 137.7911 44.0949)" font-family="'ArialMT'" font-size="14.1732">4</text>
			<text id="text2913" transform="matrix(1 0 0 1 166.1373 44.0949)" fill="#787878" font-family="'ArialMT'" font-size="14.1732">5</text>
			<text id="text2915" transform="matrix(1 0 0 1 -3.9413 66.1418)" fill="#787878" font-family="'ArialMT'" font-size="14.1732">6</text>
			<text id="text2917" transform="matrix(1 0 0 1 24.4053 66.1418)" font-family="'ArialMT'" font-size="14.1732">7</text>
			<text id="text2919" transform="matrix(1 0 0 1 52.7515 66.1418)" font-family="'ArialMT'" font-size="14.1732">8</text>
			<text id="text2921" transform="matrix(1 0 0 1 81.0982 66.1418)" font-family="'ArialMT'" font-size="14.1732">9</text>
			<text id="text2923" transform="matrix(1 0 0 1 105.5035 66.1418)" font-family="'ArialMT'" font-size="14.1732">10</text>
			<text id="text2925" transform="matrix(1 0 0 1 134.3756 66.1418)" font-family="'ArialMT'" font-size="14.1732">11</text>
			<text id="text2927" transform="matrix(1 0 0 1 162.1964 66.1418)" fill="#787878" font-family="'ArialMT'" font-size="14.1732">12</text>
			<text id="text2929" transform="matrix(1 0 0 1 -7.8822 88.1887)" fill="#787878" font-family="'ArialMT'" font-size="14.1732">13</text>
			<text id="text2931" transform="matrix(1 0 0 1 20.4639 88.1887)" font-family="'ArialMT'" font-size="14.1732">14</text>
			<text id="text2933" transform="matrix(1 0 0 1 48.8106 88.1887)" font-family="'ArialMT'" font-size="14.1732">15</text>
			<text id="text2935" transform="matrix(1 0 0 1 77.1568 88.1887)" font-family="'ArialMT'" font-size="14.1732">16</text>
			<text id="text2937" transform="matrix(1 0 0 1 105.5035 88.1887)" font-family="'ArialMT'" font-size="14.1732">17</text>
			<text id="text2939" transform="matrix(1 0 0 1 133.8497 88.1887)" font-family="'ArialMT'" font-size="14.1732">18</text>
			<text id="text2941" transform="matrix(1 0 0 1 162.1964 88.1887)" fill="#787878" font-family="'ArialMT'" font-size="14.1732">19</text>
			<text id="text2943" transform="matrix(1 0 0 1 -7.8822 110.2355)" fill="#787878" font-family="'ArialMT'" font-size="14.1732">20</text>
			<text id="text2945" transform="matrix(1 0 0 1 20.4639 110.2355)" font-family="'ArialMT'" font-size="14.1732">21</text>
			<text id="text2947" transform="matrix(1 0 0 1 48.8106 110.2355)" font-family="'ArialMT'" font-size="14.1732">22</text>
			<text id="text2949" transform="matrix(1 0 0 1 77.1568 110.2355)" font-family="'ArialMT'" font-size="14.1732">23</text>
			<text id="text2951" transform="matrix(1 0 0 1 105.5035 110.2355)" font-family="'ArialMT'" font-size="14.1732">24</text>
			<text id="text2953" transform="matrix(1 0 0 1 133.8497 110.2355)" font-family="'ArialMT'" font-size="14.1732">25</text>
			<text id="text2955" transform="matrix(1 0 0 1 162.1964 110.2355)" fill="#787878" font-family="'ArialMT'" font-size="14.1732">26</text>
			<text id="text2957" transform="matrix(1 0 0 1 -7.8822 132.2824)" fill="#787878" font-family="'ArialMT'" font-size="14.1732">27</text>
			<text id="text2959" transform="matrix(1 0 0 1 20.4639 132.2824)" font-family="'ArialMT'" font-size="14.1732">28</text>
			<text id="text2961" transform="matrix(1 0 0 1 48.8106 132.2824)" font-family="'ArialMT'" font-size="14.1732">29</text>
			<text id="text2963" transform="matrix(1 0 0 1 77.1568 132.2824)" font-family="'ArialMT'" font-size="14.1732">30</text>
			<text id="text2965" transform="matrix(1 0 0 1 105.5035 132.2824)" font-family="'ArialMT'" font-size="14.1732">31</text>
			<text id="text2967" transform="matrix(1 0 0 1 137.7911 132.2824)" fill="#B0B0B0" font-family="'ArialMT'" font-size="14.1732">1</text>
			<text id="text2969" transform="matrix(1 0 0 1 166.1373 132.2824)" fill="#B0B0B0" font-family="'ArialMT'" font-size="14.1732">2</text>
			<text id="text2971" transform="matrix(1 0 0 1 -3.9413 154.3312)" fill="#B0B0B0" font-family="'ArialMT'" font-size="14.1732">3</text>
			<text id="text2973" transform="matrix(1 0 0 1 24.4053 154.3312)" fill="#B0B0B0" font-family="'ArialMT'" font-size="14.1732">4</text>
			<text id="text2975" transform="matrix(1 0 0 1 52.7515 154.3312)" fill="#B0B0B0" font-family="'ArialMT'" font-size="14.1732">5</text>
			<text id="text2977" transform="matrix(1 0 0 1 81.0982 154.3312)" fill="#B0B0B0" font-family="'ArialMT'" font-size="14.1732">6</text>
			<text id="text2979" transform="matrix(1 0 0 1 109.4444 154.3312)" fill="#B0B0B0" font-family="'ArialMT'" font-size="14.1732">7</text>
			<text id="text2981" transform="matrix(1 0 0 1 137.7911 154.3312)" fill="#B0B0B0" font-family="'ArialMT'" font-size="14.1732">8</text>
			<text id="text2983" transform="matrix(1 0 0 1 166.1373 154.3312)" fill="#B0B0B0" font-family="'ArialMT'" font-size="14.1732">9</text>
		</g>
	</g>
	<g id="month_11_2013" transform="translate(287.00787,683.46457)">
		
			<text id="text2986" transform="matrix(1 0 0 1 38.8286 4.4094)" fill="#686868" font-family="'Arial-BoldMT'" font-size="18.8976">November</text>
		<g id="g2988">
			<text id="text2990" transform="matrix(1 0 0 1 -8.4063 22.0461)" fill="#909090" font-family="'ArialMT'" font-size="9.4488">Sun</text>
			<text id="text2992" transform="matrix(1 0 0 1 19.1562 22.0461)" fill="#909090" font-family="'ArialMT'" font-size="9.4488">Mon</text>
			<text id="text2994" transform="matrix(1 0 0 1 48.727 22.0461)" fill="#909090" font-family="'ArialMT'" font-size="9.4488">Tue</text>
			<text id="text2996" transform="matrix(1 0 0 1 75.4106 22.0461)" fill="#909090" font-family="'ArialMT'" font-size="9.4488">Wed</text>
			<text id="text2998" transform="matrix(1 0 0 1 105.2446 22.0461)" fill="#909090" font-family="'ArialMT'" font-size="9.4488">Thu</text>
			<text id="text3000" transform="matrix(1 0 0 1 136.2231 22.0461)" fill="#909090" font-family="'ArialMT'" font-size="9.4488">Fri</text>
			<text id="text3002" transform="matrix(1 0 0 1 162.9868 22.0461)" fill="#909090" font-family="'ArialMT'" font-size="9.4488">Sat</text>
		</g>
		<g id="g3004">
			<text id="text3006" transform="matrix(1 0 0 1 -7.8824 44.0949)" fill="#B0B0B0" font-family="'ArialMT'" font-size="14.1732">27</text>
			<text id="text3008" transform="matrix(1 0 0 1 20.4638 44.0949)" fill="#B0B0B0" font-family="'ArialMT'" font-size="14.1732">28</text>
			<text id="text3010" transform="matrix(1 0 0 1 48.811 44.0949)" fill="#B0B0B0" font-family="'ArialMT'" font-size="14.1732">29</text>
			<text id="text3012" transform="matrix(1 0 0 1 77.1567 44.0949)" fill="#B0B0B0" font-family="'ArialMT'" font-size="14.1732">30</text>
			<text id="text3014" transform="matrix(1 0 0 1 105.5034 44.0949)" fill="#B0B0B0" font-family="'ArialMT'" font-size="14.1732">31</text>
			<text id="text3016" transform="matrix(1 0 0 1 137.7914 44.0949)" font-family="'ArialMT'" font-size="14.1732">1</text>
			<text id="text3018" transform="matrix(1 0 0 1 166.1371 44.0949)" fill="#787878" font-family="'ArialMT'" font-size="14.1732">2</text>
			<text id="text3020" transform="matrix(1 0 0 1 -3.9415 66.1418)" fill="#787878" font-family="'ArialMT'" font-size="14.1732">3</text>
			<text id="text3022" transform="matrix(1 0 0 1 24.4052 66.1418)" font-family="'ArialMT'" font-size="14.1732">4</text>
			<text id="text3024" transform="matrix(1 0 0 1 52.7524 66.1418)" font-family="'ArialMT'" font-size="14.1732">5</text>
			<text id="text3026" transform="matrix(1 0 0 1 81.0981 66.1418)" font-family="'ArialMT'" font-size="14.1732">6</text>
			<text id="text3028" transform="matrix(1 0 0 1 109.4448 66.1418)" font-family="'ArialMT'" font-size="14.1732">7</text>
			<text id="text3030" transform="matrix(1 0 0 1 137.7914 66.1418)" font-family="'ArialMT'" font-size="14.1732">8</text>
			<text id="text3032" transform="matrix(1 0 0 1 166.1371 66.1418)" fill="#787878" font-family="'ArialMT'" font-size="14.1732">9</text>
			<text id="text3034" transform="matrix(1 0 0 1 -7.8824 88.1887)" fill="#787878" font-family="'ArialMT'" font-size="14.1732">10</text>
			<text id="text3036" transform="matrix(1 0 0 1 20.9902 88.1887)" font-family="'ArialMT'" font-size="14.1732">11</text>
			<text id="text3038" transform="matrix(1 0 0 1 48.811 88.1887)" font-family="'ArialMT'" font-size="14.1732">12</text>
			<text id="text3040" transform="matrix(1 0 0 1 77.1567 88.1887)" font-family="'ArialMT'" font-size="14.1732">13</text>
			<text id="text3042" transform="matrix(1 0 0 1 105.5034 88.1887)" font-family="'ArialMT'" font-size="14.1732">14</text>
			<text id="text3044" transform="matrix(1 0 0 1 133.85 88.1887)" font-family="'ArialMT'" font-size="14.1732">15</text>
			<text id="text3046" transform="matrix(1 0 0 1 162.1957 88.1887)" fill="#787878" font-family="'ArialMT'" font-size="14.1732">16</text>
			<text id="text3048" transform="matrix(1 0 0 1 -7.8824 110.2355)" fill="#787878" font-family="'ArialMT'" font-size="14.1732">17</text>
			<text id="text3050" transform="matrix(1 0 0 1 20.4638 110.2355)" font-family="'ArialMT'" font-size="14.1732">18</text>
			<text id="text3052" transform="matrix(1 0 0 1 48.811 110.2355)" font-family="'ArialMT'" font-size="14.1732">19</text>
			<text id="text3054" transform="matrix(1 0 0 1 77.1567 110.2355)" font-family="'ArialMT'" font-size="14.1732">20</text>
			<text id="text3056" transform="matrix(1 0 0 1 105.5034 110.2355)" font-family="'ArialMT'" font-size="14.1732">21</text>
			<text id="text3058" transform="matrix(1 0 0 1 133.85 110.2355)" font-family="'ArialMT'" font-size="14.1732">22</text>
			<text id="text3060" transform="matrix(1 0 0 1 162.1957 110.2355)" fill="#787878" font-family="'ArialMT'" font-size="14.1732">23</text>
			<text id="text3062" transform="matrix(1 0 0 1 -7.8824 132.2824)" fill="#787878" font-family="'ArialMT'" font-size="14.1732">24</text>
			<text id="text3064" transform="matrix(1 0 0 1 20.4638 132.2824)" font-family="'ArialMT'" font-size="14.1732">25</text>
			<text id="text3066" transform="matrix(1 0 0 1 48.811 132.2824)" font-family="'ArialMT'" font-size="14.1732">26</text>
			<text id="text3068" transform="matrix(1 0 0 1 77.1567 132.2824)" font-family="'ArialMT'" font-size="14.1732">27</text>
			<text id="text3070" transform="matrix(1 0 0 1 105.5034 132.2824)" font-family="'ArialMT'" font-size="14.1732">28</text>
			<text id="text3072" transform="matrix(1 0 0 1 133.85 132.2824)" font-family="'ArialMT'" font-size="14.1732">29</text>
			<text id="text3074" transform="matrix(1 0 0 1 162.1957 132.2824)" fill="#787878" font-family="'ArialMT'" font-size="14.1732">30</text>
			<text id="text3076" transform="matrix(1 0 0 1 -3.9415 154.3312)" fill="#B0B0B0" font-family="'ArialMT'" font-size="14.1732">1</text>
			<text id="text3078" transform="matrix(1 0 0 1 24.4052 154.3312)" fill="#B0B0B0" font-family="'ArialMT'" font-size="14.1732">2</text>
			<text id="text3080" transform="matrix(1 0 0 1 52.7524 154.3312)" fill="#B0B0B0" font-family="'ArialMT'" font-size="14.1732">3</text>
			<text id="text3082" transform="matrix(1 0 0 1 81.0981 154.3312)" fill="#B0B0B0" font-family="'ArialMT'" font-size="14.1732">4</text>
			<text id="text3084" transform="matrix(1 0 0 1 109.4448 154.3312)" fill="#B0B0B0" font-family="'ArialMT'" font-size="14.1732">5</text>
			<text id="text3086" transform="matrix(1 0 0 1 137.7914 154.3312)" fill="#B0B0B0" font-family="'ArialMT'" font-size="14.1732">6</text>
			<text id="text3088" transform="matrix(1 0 0 1 166.1371 154.3312)" fill="#B0B0B0" font-family="'ArialMT'" font-size="14.1732">7</text>
		</g>
	</g>
	<g id="month_12_2013" transform="translate(505.27559,683.46457)">
		<text id="text3091" transform="matrix(1 0 0 1 39.346 4.4094)" fill="#686868" font-family="'Arial-BoldMT'" font-size="18.8976">December</text>
		<g id="g3093">
			<text id="text3095" transform="matrix(1 0 0 1 -8.406 22.0461)" fill="#909090" font-family="'ArialMT'" font-size="9.4488">Sun</text>
			<text id="text3097" transform="matrix(1 0 0 1 19.1565 22.0461)" fill="#909090" font-family="'ArialMT'" font-size="9.4488">Mon</text>
			<text id="text3099" transform="matrix(1 0 0 1 48.7268 22.0461)" fill="#909090" font-family="'ArialMT'" font-size="9.4488">Tue</text>
			<text id="text3101" transform="matrix(1 0 0 1 75.4104 22.0461)" fill="#909090" font-family="'ArialMT'" font-size="9.4488">Wed</text>
			<text id="text3103" transform="matrix(1 0 0 1 105.2444 22.0461)" fill="#909090" font-family="'ArialMT'" font-size="9.4488">Thu</text>
			<text id="text3105" transform="matrix(1 0 0 1 136.2229 22.0461)" fill="#909090" font-family="'ArialMT'" font-size="9.4488">Fri</text>
			<text id="text3107" transform="matrix(1 0 0 1 162.9876 22.0461)" fill="#909090" font-family="'ArialMT'" font-size="9.4488">Sat</text>
		</g>
		<g id="g3109">
			<text id="text3111" transform="matrix(1 0 0 1 -3.9411 44.0949)" fill="#787878" font-family="'ArialMT'" font-size="14.1732">1</text>
			<text id="text3113" transform="matrix(1 0 0 1 24.4046 44.0949)" font-family="'ArialMT'" font-size="14.1732">2</text>
			<text id="text3115" transform="matrix(1 0 0 1 52.7522 44.0949)" font-family="'ArialMT'" font-size="14.1732">3</text>
			<text id="text3117" transform="matrix(1 0 0 1 81.0979 44.0949)" font-family="'ArialMT'" font-size="14.1732">4</text>
			<text id="text3119" transform="matrix(1 0 0 1 109.4446 44.0949)" font-family="'ArialMT'" font-size="14.1732">5</text>
			<text id="text3121" transform="matrix(1 0 0 1 137.7913 44.0949)" font-family="'ArialMT'" font-size="14.1732">6</text>
			<text id="text3123" transform="matrix(1 0 0 1 166.137 44.0949)" fill="#787878" font-family="'ArialMT'" font-size="14.1732">7</text>
			<text id="text3125" transform="matrix(1 0 0 1 -3.9411 66.1418)" fill="#787878" font-family="'ArialMT'" font-size="14.1732">8</text>
			<text id="text3127" transform="matrix(1 0 0 1 24.4046 66.1418)" font-family="'ArialMT'" font-size="14.1732">9</text>
			<text id="text3129" transform="matrix(1 0 0 1 48.8108 66.1418)" font-family="'ArialMT'" font-size="14.1732">10</text>
			<text id="text3131" transform="matrix(1 0 0 1 77.6829 66.1418)" font-family="'ArialMT'" font-size="14.1732">11</text>
			<text id="text3133" transform="matrix(1 0 0 1 105.5032 66.1418)" font-family="'ArialMT'" font-size="14.1732">12</text>
			<text id="text3135" transform="matrix(1 0 0 1 133.8499 66.1418)" font-family="'ArialMT'" font-size="14.1732">13</text>
			<text id="text3137" transform="matrix(1 0 0 1 162.1956 66.1418)" fill="#787878" font-family="'ArialMT'" font-size="14.1732">14</text>
			<text id="text3139" transform="matrix(1 0 0 1 -7.8825 88.1887)" fill="#787878" font-family="'ArialMT'" font-size="14.1732">15</text>
			<text id="text3141" transform="matrix(1 0 0 1 20.4641 88.1887)" font-family="'ArialMT'" font-size="14.1732">16</text>
			<text id="text3143" transform="matrix(1 0 0 1 48.8108 88.1887)" font-family="'ArialMT'" font-size="14.1732">17</text>
			<text id="text3145" transform="matrix(1 0 0 1 77.1565 88.1887)" font-family="'ArialMT'" font-size="14.1732">18</text>
			<text id="text3147" transform="matrix(1 0 0 1 105.5032 88.1887)" font-family="'ArialMT'" font-size="14.1732">19</text>
			<text id="text3149" transform="matrix(1 0 0 1 133.8499 88.1887)" font-family="'ArialMT'" font-size="14.1732">20</text>
			<text id="text3151" transform="matrix(1 0 0 1 162.1956 88.1887)" fill="#787878" font-family="'ArialMT'" font-size="14.1732">21</text>
			<text id="text3153" transform="matrix(1 0 0 1 -7.8825 110.2355)" fill="#787878" font-family="'ArialMT'" font-size="14.1732">22</text>
			<text id="text3155" transform="matrix(1 0 0 1 20.4641 110.2355)" font-family="'ArialMT'" font-size="14.1732">23</text>
			<text id="text3157" transform="matrix(1 0 0 1 48.8108 110.2355)" font-family="'ArialMT'" font-size="14.1732">24</text>
			<text id="text3159" transform="matrix(1 0 0 1 77.1565 110.2355)" font-family="'ArialMT'" font-size="14.1732">25</text>
			<text id="text3161" transform="matrix(1 0 0 1 105.5032 110.2355)" font-family="'ArialMT'" font-size="14.1732">26</text>
			<text id="text3163" transform="matrix(1 0 0 1 133.8499 110.2355)" font-family="'ArialMT'" font-size="14.1732">27</text>
			<text id="text3165" transform="matrix(1 0 0 1 162.1956 110.2355)" fill="#787878" font-family="'ArialMT'" font-size="14.1732">28</text>
			<text id="text3167" transform="matrix(1 0 0 1 -7.8825 132.2824)" fill="#787878" font-family="'ArialMT'" font-size="14.1732">29</text>
			<text id="text3169" transform="matrix(1 0 0 1 20.4641 132.2824)" font-family="'ArialMT'" font-size="14.1732">30</text>
			<text id="text3171" transform="matrix(1 0 0 1 48.8108 132.2824)" font-family="'ArialMT'" font-size="14.1732">31</text>
			<text id="text3173" transform="matrix(1 0 0 1 81.0979 132.2824)" fill="#B0B0B0" font-family="'ArialMT'" font-size="14.1732">1</text>
			<text id="text3175" transform="matrix(1 0 0 1 109.4446 132.2824)" fill="#B0B0B0" font-family="'ArialMT'" font-size="14.1732">2</text>
			<text id="text3177" transform="matrix(1 0 0 1 137.7913 132.2824)" fill="#B0B0B0" font-family="'ArialMT'" font-size="14.1732">3</text>
			<text id="text3179" transform="matrix(1 0 0 1 166.137 132.2824)" fill="#B0B0B0" font-family="'ArialMT'" font-size="14.1732">4</text>
			<text id="text3181" transform="matrix(1 0 0 1 -3.9411 154.3312)" fill="#B0B0B0" font-family="'ArialMT'" font-size="14.1732">5</text>
			<text id="text3183" transform="matrix(1 0 0 1 24.4046 154.3312)" fill="#B0B0B0" font-family="'ArialMT'" font-size="14.1732">6</text>
			<text id="text3185" transform="matrix(1 0 0 1 52.7522 154.3312)" fill="#B0B0B0" font-family="'ArialMT'" font-size="14.1732">7</text>
			<text id="text3187" transform="matrix(1 0 0 1 81.0979 154.3312)" fill="#B0B0B0" font-family="'ArialMT'" font-size="14.1732">8</text>
			<text id="text3189" transform="matrix(1 0 0 1 109.4446 154.3312)" fill="#B0B0B0" font-family="'ArialMT'" font-size="14.1732">9</text>
			<text id="text3191" transform="matrix(1 0 0 1 133.8499 154.3312)" fill="#B0B0B0" font-family="'ArialMT'" font-size="14.1732">10</text>
			<text id="text3193" transform="matrix(1 0 0 1 162.7229 154.3312)" fill="#B0B0B0" font-family="'ArialMT'" font-size="14.1732">11</text>
		</g>
	</g>
</g>
</svg>
