<?xml version="1.0" encoding="utf-8"?>
<!-- Generator: Adobe Illustrator 16.0.0, SVG Export Plug-In . SVG Version: 6.00 Build 0)  -->
<!DOCTYPE svg PUBLIC "-//W3C//DTD SVG 1.1//EN" "http://www.w3.org/Graphics/SVG/1.1/DTD/svg11.dtd">
<svg version="1.1" id="Layer_1" xmlns="http://www.w3.org/2000/svg" xmlns:xlink="http://www.w3.org/1999/xlink" x="0px" y="0px"
	 width="1027px" height="116.162px" viewBox="0 0 1027 116.162" enable-background="new 0 0 1027 116.162" xml:space="preserve">
<g>
	<path fill="#ADA400" d="M288.049-279.446c-13.238,0-24.047-2.43-32.792-11.418l13.602-13.602c4.495,4.492,12.39,6.072,19.313,6.072
		c8.379,0,12.387-2.795,12.387-7.773c0-2.064-0.485-3.764-1.7-5.102c-1.093-1.092-2.914-1.943-5.708-2.309l-10.445-1.457
		c-7.652-1.094-13.482-3.643-17.368-7.65c-4.009-4.131-5.952-9.959-5.952-17.369c0-15.79,11.903-27.328,31.58-27.328
		c12.388,0,21.739,2.915,29.148,10.324l-13.359,13.36c-5.465-5.466-12.633-5.101-16.397-5.101c-7.409,0-10.445,4.251-10.445,8.017
		c0,1.092,0.364,2.671,1.701,4.007c1.093,1.093,2.915,2.186,5.951,2.551l10.444,1.458c7.772,1.092,13.36,3.52,17.004,7.164
		c4.617,4.494,6.438,10.932,6.438,18.947C321.449-289.042,306.268-279.446,288.049-279.446"/>
	<polygon fill="#ADA400" points="355.333,-366.653 371.122,-366.653 399.666,-280.177 377.682,-280.177 363.107,-328.517 
		348.773,-280.177 326.67,-280.177 	"/>
	<path fill="#ADA400" d="M437.229-279.446c-17.976,0-32.672-12.146-32.672-31.094v-56.113h21.256v55.629
		c0,8.016,4.371,12.631,11.416,12.631s11.66-4.615,11.66-12.631v-55.629h21.254v56.113
		C470.143-291.593,455.205-279.446,437.229-279.446"/>
	<path fill="#ADA400" d="M536.049-288.677c-5.951,5.949-14.332,8.5-23.32,8.5h-32.064v-86.476h32.064
		c8.988,0,17.369,2.551,23.32,8.502c10.08,10.08,8.986,21.134,8.986,34.738S546.129-298.759,536.049-288.677 M521.475-342.848
		c-1.943-2.915-4.858-4.857-10.203-4.857h-9.352v48.583h9.352c5.345,0,8.26-1.943,10.203-4.859
		c1.701-2.428,2.308-4.736,2.308-19.432C523.782-337.989,523.176-340.417,521.475-342.848"/>
	<rect x="555.42" y="-366.653" fill="#ADA400" width="21.254" height="86.477"/>
	<path fill="#555759" d="M644.721-326.159c0,4.225-3.426,7.65-7.648,7.65h-5.506c-4.227,0-7.652-3.426-7.652-7.65v-55.968
		c0-4.225,3.426-7.651,7.652-7.651h5.506c4.223,0,7.648,3.426,7.648,7.651V-326.159z"/>
	<polygon fill="#555759" points="737.938,-279.878 710.199,-323.433 710.199,-279.878 688.91,-279.878 688.91,-366.5 
		707.523,-366.5 735.26,-322.946 735.26,-366.5 756.551,-366.5 756.551,-279.878 	"/>
	<polygon fill="#555759" points="774.072,-279.878 774.072,-366.5 795.361,-366.5 795.361,-298.858 831.738,-298.858 
		831.738,-279.878 	"/>
	<rect x="844.148" y="-366.5" fill="#555759" width="21.289" height="86.62"/>
	<polygon fill="#555759" points="931.984,-279.878 904.246,-323.433 904.246,-279.878 882.957,-279.878 882.957,-366.5 
		901.568,-366.5 929.307,-322.946 929.307,-366.5 950.598,-366.5 950.598,-279.878 	"/>
	<polygon fill="#555759" points="968.119,-279.878 968.119,-366.5 1027,-366.5 1027,-347.522 989.408,-347.522 989.408,-333.044 
		1021.525,-333.044 1021.525,-314.065 989.408,-314.065 989.408,-298.858 1027,-298.858 1027,-279.878 	"/>
	<path fill="#FFFFFF" d="M632.871-381.529v-1.522h-3.613v-2.488h10.125v4.01c0,2.247-1.596,3.455-3.258,3.455
		C634.459-378.074,632.871-379.282,632.871-381.529 M637.146-381.642v-1.409H635.1v1.409c0,0.682,0.498,1.078,1.025,1.078
		S637.146-380.96,637.146-381.642"/>
	<path fill="#FFFFFF" d="M629.258-371.857l3.768-1.79v-0.84h-3.768v-2.491h10.125v4.013c0,2.247-1.596,3.455-3.258,3.455
		c-1.377,0-2.248-0.854-2.646-1.647l-4.221,2.186V-371.857z M637.146-373.079v-1.409H635.1v1.409c0,0.682,0.498,1.078,1.025,1.078
		S637.146-372.396,637.146-373.079"/>
	<path fill="#FFFFFF" d="M630.311-361.65c-0.74-0.739-1.141-1.591-1.141-2.83c0-1.237,0.4-2.091,1.141-2.831
		c1.062-1.066,2.484-1.023,4.01-1.023c1.52,0,2.943-0.043,4.01,1.023c0.738,0.74,1.137,1.594,1.137,2.831
		c0,1.239-0.398,2.091-1.137,2.83c-1.066,1.066-2.49,1.023-4.01,1.023C632.795-360.627,631.373-360.584,630.311-361.65
		 M636.809-363.485c0.238-0.184,0.438-0.539,0.438-0.995c0-0.457-0.199-0.808-0.438-0.995c-0.303-0.226-0.645-0.37-2.488-0.37
		c-1.852,0-2.178,0.144-2.477,0.37c-0.238,0.187-0.457,0.538-0.457,0.995c0,0.456,0.219,0.811,0.457,0.995
		c0.299,0.227,0.625,0.37,2.477,0.37C636.164-363.115,636.506-363.258,636.809-363.485"/>
	<path fill="#FFFFFF" d="M629.17-357.956c0-1.181,0.285-1.935,1.107-2.756l1.621,1.634c-0.311,0.311-0.512,0.568-0.512,1.122
		c0,0.77,0.428,1.321,1.395,1.321h6.602v2.491h-6.656C630.322-354.144,629.17-356.047,629.17-357.956"/>
	<path fill="#FFFFFF" d="M632.287-353.018c1.205,0,1.816,0.613,2.203,1.165c0.324-0.508,0.865-1.052,1.979-1.052
		c1.744,0,2.998,1.38,2.998,3.259c0,1.806-1.15,3.253-3.055,3.253v-2.33c0.605,0,0.947-0.442,0.947-0.923
		c0-0.486-0.322-0.926-0.965-0.926c-0.457,0-0.953,0.271-0.953,0.967v0.325h-2.02v-0.325c0-0.626-0.457-1.082-1.07-1.082
		c-0.719,0-1.074,0.427-1.074,1.041c0,0.58,0.355,1.036,1.062,1.036v2.333c-2.277,0-3.17-1.692-3.17-3.369
		C629.17-351.425,630.166-353.018,632.287-353.018"/>
	<path fill="#FFFFFF" d="M629.17-341.424c0-1.179,0.398-2.073,1.141-2.815c1.064-1.067,2.486-1.024,4.008-1.024
		c1.523,0,2.947-0.043,4.01,1.024c0.74,0.742,1.139,1.636,1.139,2.815c0,1.921-1.068,3.469-3.303,3.841v-2.533
		c0.57-0.156,1.082-0.47,1.082-1.29c0-0.458-0.182-0.801-0.426-0.984c-0.299-0.228-0.656-0.387-2.502-0.387
		c-1.85,0-2.205,0.159-2.504,0.387c-0.24,0.183-0.428,0.526-0.428,0.984c0,0.82,0.512,1.134,1.082,1.29v2.533
		C630.234-337.955,629.17-339.503,629.17-341.424"/>
	<polygon fill="#FFFFFF" points="637.162,-332.532 629.258,-332.532 629.258,-335.021 637.162,-335.021 637.162,-337.511 
		639.383,-337.511 639.383,-330.044 637.162,-330.044 	"/>
	<path fill="#FFFFFF" d="M629.17-326.161c0-1.551,0.285-2.816,1.334-3.838l1.598,1.59c-0.527,0.527-0.715,1.451-0.715,2.262
		c0,0.98,0.328,1.449,0.914,1.449c0.238,0,0.438-0.055,0.598-0.197c0.125-0.127,0.227-0.34,0.266-0.67l0.176-1.223
		c0.125-0.895,0.422-1.578,0.893-2.035c0.486-0.465,1.166-0.695,2.037-0.695c1.846,0,3.197,1.396,3.197,3.701
		c0,1.449-0.34,2.545-1.211,3.412l-1.564-1.564c0.643-0.641,0.6-1.48,0.6-1.922c0-0.865-0.5-1.223-0.939-1.223
		c-0.125,0-0.312,0.043-0.469,0.201c-0.129,0.125-0.256,0.338-0.299,0.695l-0.17,1.223c-0.131,0.912-0.41,1.562-0.836,1.988
		c-0.531,0.545-1.283,0.758-2.225,0.758C630.293-322.249,629.17-324.028,629.17-326.161"/>
	<path fill="#555759" d="M634.301-279.354c-24.271,0-44.02-19.748-44.02-44.021c0-12.482,5.33-24.428,14.625-32.771
		c3.699-3.321,9.389-3.014,12.711,0.686c3.32,3.699,3.014,9.389-0.686,12.709c-5.498,4.934-8.65,11.997-8.65,19.375
		c0,14.348,11.672,26.021,26.02,26.021c14.352,0,26.023-11.674,26.023-26.021c0-7.82-3.471-15.156-9.523-20.125
		c-3.842-3.155-4.396-8.827-1.242-12.667c3.154-3.843,8.826-4.398,12.668-1.244c10.23,8.403,16.098,20.808,16.098,34.037
		C678.324-299.103,658.576-279.354,634.301-279.354"/>
	<rect id="_x3C_Slice_x3E_" x="254.883" y="-391" fill="none" width="772" height="111"/>
</g>
<g>
	<path fill="#6A0F3B" d="M283.253-215.297c-1.584-2.073-4.631-3.78-8.533-3.78c-3.901,0-6.948,1.707-8.535,3.78
		c-1.949,2.559-3.168,5.486-3.168,21.335c0,15.848,1.219,18.654,3.168,21.213c1.587,2.072,4.634,3.9,8.535,3.9
		c0.61,0,1.098,0,1.707-0.119l-5.486-5.486l10.85-10.852l4.145,4.145c0.244-2.926,0.488-6.949,0.488-12.801
		C286.424-209.811,285.207-212.738,283.253-215.297 M298.25-147.146l-6.707-6.705c-4.631,2.68-10.118,4.023-16.823,4.023
		c-10.606,0-17.92-3.416-24.261-9.754c-9.143-9.143-8.777-21.336-8.777-34.381s-0.366-25.237,8.777-34.38
		c6.341-6.339,13.655-9.752,24.261-9.752c10.607,0,17.922,3.413,24.26,9.752c9.145,9.143,8.779,21.335,8.779,34.38
		c0,10.85,0.243,21.213-4.998,29.627l6.338,6.34L298.25-147.146z"/>
	<polygon fill="#6A0F3B" points="420.086,-218.344 420.086,-150.562 398.751,-150.562 398.751,-218.344 377.416,-218.344 
		377.416,-237.364 441.422,-237.364 441.422,-218.344 	"/>
	<path fill="#6A0F3B" d="M547.076-218.222h-12.07v17.555h12.07c5.852,0,9.265-4.266,9.265-8.778
		C556.341-213.957,552.928-218.222,547.076-218.222 M557.561-150.562l-15.36-32.307h-7.194v32.307h-21.334v-86.802h34.378
		c19.265,0,29.626,13.656,29.626,27.919c0,11.825-7.314,19.264-14.141,22.676l18.773,36.207H557.561z"/>
	<polygon fill="#6A0F3B" points="344.096,-237.364 359.945,-237.364 388.594,-150.56 366.527,-150.56 351.897,-199.083 
		337.513,-150.56 315.324,-150.56 	"/>
	<polygon fill="#6A0F3B" points="459.016,-237.364 474.865,-237.364 503.514,-150.56 481.449,-150.56 466.818,-199.083 
		452.433,-150.56 430.244,-150.56 	"/>
	<path fill="#555759" d="M644.721-196.415c0,4.225-3.425,7.65-7.648,7.65h-5.506c-4.225,0-7.651-3.426-7.651-7.65v-55.968
		c0-4.225,3.427-7.651,7.651-7.651h5.506c4.224,0,7.648,3.426,7.648,7.651V-196.415z"/>
	<polygon fill="#555759" points="737.938,-150.136 710.199,-193.688 710.199,-150.136 688.91,-150.136 688.91,-236.756 
		707.523,-236.756 735.261,-193.202 735.261,-236.756 756.55,-236.756 756.55,-150.136 	"/>
	<polygon fill="#555759" points="774.072,-150.136 774.072,-236.756 795.363,-236.756 795.363,-169.114 831.738,-169.114 
		831.738,-150.136 	"/>
	<rect x="844.148" y="-236.756" fill="#555759" width="21.289" height="86.621"/>
	<polygon fill="#555759" points="931.984,-150.136 904.246,-193.688 904.246,-150.136 882.957,-150.136 882.957,-236.756 
		901.57,-236.756 929.308,-193.202 929.308,-236.756 950.597,-236.756 950.597,-150.136 	"/>
	<polygon fill="#555759" points="968.118,-150.136 968.118,-236.756 1027,-236.756 1027,-217.778 989.407,-217.778 989.407,-203.3 
		1021.524,-203.3 1021.524,-184.321 989.407,-184.321 989.407,-169.114 1027,-169.114 1027,-150.136 	"/>
	<path fill="#FFFFFF" d="M631.07-251.786v-1.521h-3.612v-2.489h10.125v4.01c0,2.247-1.597,3.456-3.257,3.456
		C632.659-248.33,631.07-249.539,631.07-251.786 M635.347-251.898v-1.409H633.3v1.409c0,0.682,0.498,1.077,1.026,1.077
		C634.852-250.821,635.347-251.216,635.347-251.898"/>
	<path fill="#FFFFFF" d="M629.259-242.113l3.767-1.79v-0.84h-3.767v-2.491h10.125v4.012c0,2.247-1.597,3.455-3.257,3.455
		c-1.379,0-2.249-0.853-2.647-1.646l-4.221,2.185V-242.113z M637.147-243.335v-1.408h-2.047v1.408c0,0.683,0.498,1.078,1.026,1.078
		C636.652-242.257,637.147-242.652,637.147-243.335"/>
	<path fill="#FFFFFF" d="M630.31-231.907c-0.739-0.739-1.139-1.591-1.139-2.829c0-1.238,0.399-2.092,1.139-2.832
		c1.064-1.067,2.486-1.023,4.011-1.023c1.521,0,2.944-0.044,4.01,1.023c0.74,0.74,1.138,1.594,1.138,2.832
		c0,1.238-0.397,2.09-1.138,2.829c-1.065,1.066-2.489,1.023-4.01,1.023C632.796-230.884,631.374-230.841,630.31-231.907
		 M636.81-233.742c0.238-0.184,0.438-0.539,0.438-0.994c0-0.458-0.199-0.809-0.438-0.996c-0.303-0.227-0.645-0.37-2.489-0.37
		c-1.851,0-2.179,0.143-2.476,0.37c-0.239,0.187-0.457,0.538-0.457,0.996c0,0.455,0.218,0.81,0.457,0.994
		c0.297,0.227,0.625,0.369,2.476,0.369C636.165-233.373,636.507-233.515,636.81-233.742"/>
	<path fill="#FFFFFF" d="M629.172-228.212c0-1.18,0.282-1.935,1.106-2.756l1.622,1.635c-0.311,0.31-0.512,0.567-0.512,1.121
		c0,0.77,0.426,1.322,1.394,1.322h6.603v2.491h-6.658C630.323-224.399,629.172-226.304,629.172-228.212"/>
	<path fill="#FFFFFF" d="M632.289-223.274c1.204,0,1.815,0.612,2.202,1.165c0.324-0.508,0.865-1.052,1.979-1.052
		c1.742,0,2.998,1.38,2.998,3.259c0,1.806-1.151,3.254-3.058,3.254v-2.331c0.607,0,0.949-0.442,0.949-0.923
		c0-0.486-0.324-0.926-0.965-0.926c-0.457,0-0.953,0.271-0.953,0.967v0.325h-2.019v-0.325c0-0.627-0.457-1.082-1.071-1.082
		c-0.718,0-1.076,0.427-1.076,1.041c0,0.58,0.358,1.036,1.065,1.036v2.333c-2.278,0-3.17-1.691-3.17-3.369
		C629.172-221.681,630.166-223.274,632.289-223.274"/>
	<path fill="#FFFFFF" d="M629.172-211.68c0-1.179,0.397-2.073,1.139-2.815c1.063-1.067,2.486-1.024,4.009-1.024
		s2.946-0.043,4.01,1.024c0.74,0.742,1.14,1.636,1.14,2.815c0,1.921-1.068,3.469-3.304,3.841v-2.533
		c0.57-0.157,1.082-0.469,1.082-1.29c0-0.458-0.181-0.801-0.426-0.984c-0.298-0.228-0.656-0.387-2.502-0.387
		c-1.849,0-2.205,0.159-2.505,0.387c-0.239,0.183-0.426,0.526-0.426,0.984c0,0.821,0.512,1.133,1.082,1.29v2.533
		C630.235-208.211,629.172-209.759,629.172-211.68"/>
	<polygon fill="#FFFFFF" points="637.164,-202.788 629.26,-202.788 629.26,-205.278 637.164,-205.278 637.164,-207.768 
		639.385,-207.768 639.385,-200.3 637.164,-200.3 	"/>
	<path fill="#FFFFFF" d="M629.172-196.417c0-1.551,0.282-2.816,1.334-3.84l1.596,1.592c-0.526,0.527-0.713,1.451-0.713,2.262
		c0,0.98,0.328,1.449,0.912,1.449c0.239,0,0.438-0.057,0.598-0.197c0.127-0.127,0.228-0.34,0.267-0.67l0.175-1.223
		c0.127-0.895,0.422-1.578,0.894-2.035c0.485-0.465,1.167-0.695,2.036-0.695c1.847,0,3.199,1.395,3.199,3.701
		c0,1.449-0.341,2.545-1.211,3.412l-1.565-1.566c0.643-0.639,0.6-1.479,0.6-1.92c0-0.865-0.5-1.223-0.938-1.223
		c-0.127,0-0.313,0.043-0.469,0.201c-0.129,0.125-0.257,0.338-0.3,0.695l-0.17,1.223c-0.131,0.912-0.409,1.562-0.836,1.988
		c-0.53,0.545-1.282,0.758-2.226,0.758C630.292-192.505,629.172-194.284,629.172-196.417"/>
	<path fill="#555759" d="M634.302-149.61c-24.272,0-44.021-19.748-44.021-44.021c0-12.483,5.332-24.428,14.626-32.772
		c3.698-3.32,9.39-3.013,12.711,0.687c3.319,3.699,3.013,9.389-0.687,12.71c-5.496,4.933-8.65,11.996-8.65,19.375
		c0,14.348,11.673,26.021,26.021,26.021c14.351,0,26.021-11.674,26.021-26.021c0-7.82-3.47-15.157-9.521-20.126
		c-3.842-3.156-4.397-8.827-1.243-12.667c3.153-3.842,8.825-4.399,12.668-1.244c10.229,8.404,16.097,20.808,16.097,34.037
		C678.323-169.358,658.575-149.61,634.302-149.61"/>
	<rect id="_x3C_Slice_x3E__1_" x="241.24" y="-262" fill="none" width="785" height="113"/>
</g>
<g>
	<polygon fill="#E23E3A" points="168.194,-104.449 184.301,-104.449 213.417,-16.231 190.991,-16.231 176.123,-65.541 
		161.502,-16.231 138.951,-16.231 	"/>
	<polygon fill="#E23E3A" points="409.178,-104.449 425.287,-104.449 454.402,-16.231 431.977,-16.231 417.105,-65.541 
		402.484,-16.231 379.936,-16.231 	"/>
	<path fill="#E23E3A" d="M105.445-16.114H67.179v-87.883h36.412c18.271,0,28.021,10.245,28.021,25.428
		c0,9.998-6.91,15.552-9.626,17.407c3.581,2.22,10.861,6.787,10.861,19.127C132.846-25.246,121.121-16.114,105.445-16.114
		 M102.234-84.617H88.78v14.32h13.455c5.927,0,7.777-3.705,7.777-7.162C110.012-80.915,108.161-84.617,102.234-84.617
		 M103.346-50.918H88.78v15.43h14.566c5.924,0,7.899-4.078,7.899-7.778C111.245-46.969,109.27-50.918,103.346-50.918"/>
	<polygon fill="#E23E3A" points="268.954,-16.114 268.954,-50.918 245.995,-50.918 245.995,-16.114 224.394,-16.114 
		224.394,-103.997 245.995,-103.997 245.995,-70.176 268.954,-70.176 268.954,-103.997 290.555,-103.997 290.555,-16.114 	"/>
	<path fill="#E23E3A" d="M346.768-16.114L331.213-48.82h-7.281v32.706h-21.604v-87.883h34.808c19.505,0,29.997,13.827,29.997,28.268
		c0,11.974-7.406,19.501-14.318,22.958l19.01,36.657H346.768z M336.147-84.617h-12.216v17.777h12.216
		c5.933,0,9.386-4.324,9.386-8.89C345.533-80.297,342.08-84.617,336.147-84.617"/>
	<rect x="467.422" y="-103.997" fill="#E23E3A" width="21.605" height="87.883"/>
	<polygon fill="#E23E3A" points="550.541,-16.114 522.4,-60.301 522.4,-16.114 500.799,-16.114 500.799,-103.997 519.684,-103.997 
		547.826,-59.807 547.826,-103.997 569.428,-103.997 569.428,-16.114 	"/>
	<path fill="#555759" d="M639.008-62.854c0,4.309-3.492,7.803-7.805,7.803h-5.615c-4.309,0-7.803-3.494-7.803-7.803v-57.098
		c0-4.312,3.494-7.806,7.803-7.806h5.615c4.312,0,7.805,3.494,7.805,7.806V-62.854z"/>
	<polygon fill="#555759" points="734.105,-15.645 705.805,-60.075 705.805,-15.645 684.088,-15.645 684.088,-104.01 
		703.076,-104.01 731.375,-59.576 731.375,-104.01 753.094,-104.01 753.094,-15.645 	"/>
	<polygon fill="#555759" points="770.967,-15.645 770.967,-104.01 792.688,-104.01 792.688,-35.004 829.797,-35.004 
		829.797,-15.645 	"/>
	<rect x="842.457" y="-104.01" fill="#555759" width="21.719" height="88.365"/>
	<polygon fill="#555759" points="930.062,-15.645 901.764,-60.075 901.764,-15.645 880.047,-15.645 880.047,-104.01 
		899.035,-104.01 927.334,-59.576 927.334,-104.01 949.055,-104.01 949.055,-15.645 	"/>
	<polygon fill="#555759" points="966.926,-15.645 966.926,-104.01 1026.994,-104.01 1026.994,-84.649 988.645,-84.649 
		988.645,-69.88 1021.412,-69.88 1021.412,-50.516 988.645,-50.516 988.645,-35.004 1026.994,-35.004 1026.994,-15.645 	"/>
	<path fill="#FFFFFF" d="M626.918-119.342v-1.553h-3.684v-2.539h10.33v4.092c0,2.292-1.629,3.525-3.322,3.525
		C628.541-115.816,626.918-117.05,626.918-119.342 M631.283-119.455v-1.439h-2.088v1.439c0,0.695,0.508,1.098,1.047,1.098
		C630.777-118.357,631.283-118.76,631.283-119.455"/>
	<path fill="#FFFFFF" d="M623.234-109.475l3.84-1.826v-0.858h-3.84v-2.54h10.33v4.094c0,2.293-1.629,3.523-3.322,3.523
		c-1.408,0-2.295-0.869-2.701-1.68l-4.307,2.23V-109.475z M631.283-110.721v-1.438h-2.088v1.438c0,0.696,0.508,1.099,1.047,1.099
		C630.777-109.622,631.283-110.024,631.283-110.721"/>
	<path fill="#FFFFFF" d="M624.307-99.062c-0.756-0.755-1.162-1.624-1.162-2.886c0-1.264,0.406-2.136,1.162-2.889
		c1.088-1.091,2.537-1.047,4.09-1.047c1.555,0,3.006-0.044,4.092,1.047c0.756,0.753,1.162,1.625,1.162,2.889
		c0,1.262-0.406,2.131-1.162,2.886c-1.086,1.087-2.537,1.044-4.092,1.044C626.844-98.018,625.395-97.975,624.307-99.062
		 M630.939-100.934c0.24-0.188,0.443-0.552,0.443-1.014c0-0.468-0.203-0.826-0.443-1.019c-0.309-0.229-0.66-0.378-2.543-0.378
		c-1.885,0-2.219,0.148-2.523,0.378c-0.244,0.192-0.467,0.551-0.467,1.019c0,0.462,0.223,0.826,0.467,1.014
		c0.305,0.232,0.639,0.377,2.523,0.377C630.279-100.557,630.631-100.701,630.939-100.934"/>
	<path fill="#FFFFFF" d="M623.145-95.293c0-1.204,0.291-1.976,1.131-2.811l1.652,1.668c-0.316,0.316-0.521,0.578-0.521,1.143
		c0,0.784,0.434,1.349,1.422,1.349h6.734v2.54h-6.791C624.322-91.404,623.145-93.346,623.145-95.293"/>
	<path fill="#FFFFFF" d="M626.326-90.256c1.229,0,1.852,0.625,2.248,1.189c0.328-0.52,0.883-1.072,2.018-1.072
		c1.779,0,3.059,1.406,3.059,3.324c0,1.84-1.174,3.317-3.119,3.317v-2.377c0.621,0,0.969-0.452,0.969-0.94
		c0-0.498-0.332-0.945-0.984-0.945c-0.465,0-0.973,0.276-0.973,0.986v0.332h-2.061v-0.332c0-0.641-0.467-1.104-1.09-1.104
		c-0.734,0-1.1,0.436-1.1,1.062c0,0.592,0.365,1.055,1.088,1.055v2.381c-2.324,0-3.236-1.725-3.236-3.436
		C623.145-88.632,624.16-90.256,626.326-90.256"/>
	<path fill="#FFFFFF" d="M623.145-78.43c0-1.199,0.406-2.113,1.162-2.87c1.088-1.086,2.537-1.046,4.09-1.046
		c1.555,0,3.006-0.04,4.092,1.046c0.756,0.757,1.162,1.671,1.162,2.87c0,1.963-1.092,3.541-3.371,3.921v-2.584
		c0.582-0.159,1.104-0.479,1.104-1.315c0-0.47-0.184-0.819-0.432-1.005c-0.307-0.233-0.672-0.396-2.555-0.396
		c-1.885,0-2.25,0.162-2.557,0.396c-0.242,0.186-0.434,0.535-0.434,1.005c0,0.836,0.521,1.156,1.105,1.315v2.584
		C624.23-74.889,623.145-76.467,623.145-78.43"/>
	<polygon fill="#FFFFFF" points="631.301,-69.358 623.234,-69.358 623.234,-71.897 631.301,-71.897 631.301,-74.437 
		633.562,-74.437 633.562,-66.818 631.301,-66.818 	"/>
	<path fill="#FFFFFF" d="M623.145-62.856c0-1.582,0.291-2.871,1.361-3.917l1.629,1.622c-0.537,0.539-0.729,1.482-0.729,2.31
		c0,0.998,0.334,1.479,0.932,1.479c0.244,0,0.447-0.059,0.609-0.201c0.129-0.133,0.234-0.349,0.273-0.684l0.178-1.25
		c0.129-0.91,0.43-1.609,0.912-2.073c0.494-0.477,1.188-0.71,2.074-0.71c1.889,0,3.266,1.42,3.266,3.775
		c0,1.477-0.348,2.598-1.236,3.479l-1.596-1.594c0.656-0.653,0.613-1.51,0.613-1.963c0-0.881-0.512-1.244-0.959-1.244
		c-0.133,0-0.32,0.043-0.479,0.204c-0.133,0.126-0.262,0.345-0.305,0.708l-0.174,1.249c-0.135,0.931-0.418,1.592-0.854,2.028
		c-0.541,0.557-1.309,0.771-2.27,0.771C624.289-58.868,623.145-60.682,623.145-62.856"/>
	<path fill="#555759" d="M628.379-15.111c-24.762,0-44.908-20.141-44.908-44.904c0-12.734,5.438-24.92,14.922-33.432
		c3.771-3.388,9.576-3.074,12.965,0.697c3.387,3.775,3.074,9.582-0.699,12.969c-5.609,5.031-8.824,12.236-8.824,19.766
		c0,14.639,11.906,26.544,26.545,26.544c14.641,0,26.547-11.905,26.547-26.544c0-7.979-3.539-15.463-9.713-20.533
		c-3.922-3.219-4.488-9.004-1.27-12.92c3.219-3.92,9.004-4.488,12.922-1.268c10.438,8.571,16.422,21.225,16.422,34.721
		C673.287-35.252,653.145-15.111,628.379-15.111"/>
	<rect id="_x3C_Slice_x3E__2_" x="67" y="-129" fill="none" width="960" height="113"/>
</g>
<g>
	<polygon fill="#F27B28" points="409.343,24.187 425.74,24.187 455.379,113.787 432.551,113.787 417.413,63.701 402.53,113.787 
		379.574,113.787 	"/>
	<polygon fill="#F27B28" points="161.594,114.021 140.909,77.276 133.342,85.96 133.342,114.021 111.521,114.021 111.521,24.42 
		133.342,24.42 133.342,56.132 159.325,24.42 186.318,24.42 155.667,60.662 187.326,114.021 	"/>
	<path fill="#F27B28" d="M230.065,114.777c-18.665,0-33.928-12.585-33.928-32.218V24.42h22.073v57.637
		c0,8.307,4.541,13.088,11.855,13.088c7.317,0,12.108-4.781,12.108-13.088V24.42h22.073v58.14
		C264.246,102.192,248.734,114.777,230.065,114.777"/>
	<polygon fill="#F27B28" points="363.733,114.021 345.693,114.021 331.193,69.848 316.686,114.021 298.773,114.021 274.053,24.42 
		297.137,24.42 308.867,71.74 323.37,24.42 339.011,24.42 353.517,71.74 365.248,24.42 388.326,24.42 	"/>
	<rect x="468.289" y="24.419" fill="#F27B28" width="22.073" height="89.603"/>
	<polygon fill="#F27B28" points="544.884,44.051 544.884,114.021 522.809,114.021 522.809,44.051 500.737,44.051 500.737,24.419 
		566.955,24.419 566.955,44.051 	"/>
	<path fill="#555759" d="M634.912,66.658c0,4.327-3.507,7.836-7.833,7.836h-5.64c-4.327,0-7.836-3.509-7.836-7.836V9.338
		c0-4.328,3.509-7.836,7.836-7.836h5.64c4.326,0,7.833,3.508,7.833,7.836V66.658z"/>
	<polygon fill="#555759" points="730.393,114.063 701.982,69.451 701.982,114.063 680.177,114.063 680.177,25.341 699.24,25.341 
		727.652,69.951 727.652,25.341 749.457,25.341 749.457,114.063 	"/>
	<polygon fill="#555759" points="767.405,114.063 767.405,25.341 789.213,25.341 789.213,94.624 826.47,94.624 826.47,114.063 	"/>
	<rect x="839.183" y="25.341" fill="#555759" width="21.805" height="88.721"/>
	<polygon fill="#555759" points="929.15,114.063 900.738,69.451 900.738,114.063 878.934,114.063 878.934,25.341 897.996,25.341 
		926.41,69.951 926.41,25.341 948.216,25.341 948.216,114.063 	"/>
	<polygon fill="#555759" points="966.162,114.063 966.162,25.341 1026.473,25.341 1026.473,44.78 987.968,44.78 987.968,59.608 
		1020.863,59.608 1020.863,79.046 987.968,79.046 987.968,94.624 1026.473,94.624 1026.473,114.063 	"/>
	<path fill="#FFFFFF" d="M623.154,10.233V8.649h-3.76V6.058h10.54v4.176c0,2.34-1.663,3.596-3.39,3.596
		C624.81,13.829,623.154,12.573,623.154,10.233 M627.607,10.115V8.649h-2.13v1.466c0,0.709,0.518,1.121,1.067,1.121
		C627.09,11.236,627.607,10.824,627.607,10.115"/>
	<path fill="#FFFFFF" d="M619.077,19.854l3.856-1.833v-0.86h-3.856v-2.549h10.37v4.107c0,2.301-1.636,3.538-3.335,3.538
		c-1.415,0-2.303-0.875-2.714-1.687l-4.321,2.236V19.854z M627.158,18.604v-1.443h-2.096v1.443c0,0.697,0.509,1.103,1.05,1.103
		C626.648,19.707,627.158,19.302,627.158,18.604"/>
	<path fill="#FFFFFF" d="M620.153,30.308c-0.758-0.757-1.166-1.631-1.166-2.899c0-1.267,0.408-2.142,1.166-2.899
		c1.091-1.092,2.548-1.048,4.107-1.048c1.559,0,3.018-0.044,4.107,1.048c0.759,0.758,1.167,1.633,1.167,2.899
		c0,1.269-0.408,2.143-1.167,2.899c-1.09,1.092-2.549,1.047-4.107,1.047C622.701,31.354,621.244,31.399,620.153,30.308
		 M626.811,28.428c0.246-0.188,0.449-0.554,0.449-1.02c0-0.469-0.203-0.827-0.449-1.018c-0.311-0.234-0.658-0.383-2.55-0.383
		c-1.894,0-2.229,0.148-2.534,0.383c-0.247,0.19-0.468,0.549-0.468,1.018c0,0.466,0.221,0.831,0.468,1.02
		c0.306,0.23,0.641,0.375,2.534,0.375C626.152,28.803,626.5,28.658,626.811,28.428"/>
	<path fill="#FFFFFF" d="M618.988,34.091c0-1.208,0.287-1.98,1.134-2.823l1.659,1.675c-0.317,0.318-0.522,0.579-0.522,1.148
		c0,0.785,0.436,1.354,1.428,1.354h6.761v2.552h-6.818C620.167,37.996,618.988,36.046,618.988,34.091"/>
	<path fill="#FFFFFF" d="M622.181,39.148c1.233,0,1.861,0.627,2.258,1.192c0.33-0.52,0.884-1.074,2.023-1.074
		c1.786,0,3.072,1.412,3.072,3.337c0,1.85-1.179,3.331-3.131,3.331v-2.386c0.622,0,0.971-0.453,0.971-0.945
		c0-0.5-0.329-0.948-0.985-0.948c-0.471,0-0.978,0.275-0.978,0.99v0.333h-2.067v-0.333c0-0.641-0.469-1.108-1.097-1.108
		c-0.737,0-1.103,0.437-1.103,1.066c0,0.594,0.365,1.061,1.091,1.061v2.39c-2.333,0-3.247-1.731-3.247-3.45
		C618.988,40.779,620.006,39.148,622.181,39.148"/>
	<path fill="#FFFFFF" d="M618.988,51.023c0-1.205,0.408-2.123,1.165-2.882c1.092-1.095,2.549-1.049,4.107-1.049
		s3.017-0.046,4.107,1.049c0.759,0.759,1.166,1.677,1.166,2.882c0,1.969-1.095,3.555-3.382,3.934v-2.592
		c0.582-0.161,1.108-0.481,1.108-1.323c0-0.469-0.187-0.82-0.438-1.008c-0.306-0.233-0.671-0.395-2.562-0.395
		c-1.894,0-2.258,0.161-2.566,0.395c-0.244,0.188-0.436,0.539-0.436,1.008c0,0.842,0.522,1.162,1.108,1.323v2.592
		C620.078,54.578,618.988,52.992,618.988,51.023"/>
	<polygon fill="#FFFFFF" points="627.173,60.13 619.078,60.13 619.078,57.582 627.173,57.582 627.173,55.033 629.449,55.033 
		629.449,62.68 627.173,62.68 	"/>
	<path fill="#FFFFFF" d="M618.988,66.655c0-1.586,0.287-2.881,1.366-3.93l1.633,1.631c-0.537,0.537-0.729,1.485-0.729,2.316
		c0,1.004,0.337,1.482,0.933,1.482c0.247,0,0.45-0.056,0.613-0.199c0.129-0.132,0.233-0.351,0.273-0.688l0.178-1.254
		c0.131-0.915,0.432-1.614,0.918-2.083c0.495-0.477,1.194-0.712,2.085-0.712c1.89,0,3.275,1.43,3.275,3.787
		c0,1.486-0.348,2.608-1.241,3.498l-1.604-1.606c0.659-0.651,0.618-1.513,0.618-1.964c0-0.888-0.515-1.255-0.966-1.255
		c-0.128,0-0.319,0.047-0.479,0.209c-0.131,0.126-0.262,0.345-0.307,0.711l-0.176,1.253c-0.13,0.932-0.418,1.599-0.854,2.036
		c-0.543,0.56-1.313,0.776-2.279,0.776C620.135,70.665,618.988,68.843,618.988,66.655"/>
	<path fill="#555759" d="M624.243,114.599c-24.862,0-45.089-20.227-45.089-45.089c0-12.784,5.461-25.02,14.98-33.565
		c3.787-3.402,9.616-3.086,13.019,0.703c3.398,3.786,3.087,9.617-0.704,13.015c-5.627,5.056-8.86,12.291-8.86,19.848
		c0,14.696,11.958,26.653,26.654,26.653s26.654-11.957,26.654-26.653c0-8.01-3.555-15.522-9.754-20.614
		c-3.937-3.232-4.506-9.04-1.276-12.976c3.232-3.934,9.041-4.504,12.978-1.271c10.479,8.607,16.488,21.312,16.488,34.861
		C669.333,94.372,649.105,114.599,624.243,114.599"/>
	<rect id="_x3C_Slice_x3E__3_" x="111" y="1" fill="none" width="916" height="112"/>
</g>
<g>
	<path fill="#555759" d="M631.313,196.684c0,4.372-3.542,7.916-7.913,7.916h-5.7c-4.369,0-7.916-3.544-7.916-7.916v-57.905
		c0-4.372,3.547-7.916,7.916-7.916h5.7c4.371,0,7.913,3.544,7.913,7.916V196.684z"/>
	<polygon fill="#001F5B" points="1.144,244.568 1.144,154.562 62.329,154.562 62.329,174.28 23.267,174.28 23.267,189.325 
		56.64,189.325 56.64,209.045 23.267,209.045 23.267,224.845 62.329,224.845 62.329,244.568 	"/>
	<polygon fill="#001F5B" points="134.334,244.568 134.334,201.459 121.565,223.708 107.407,223.708 94.638,201.459 94.638,244.568 
		72.518,244.568 72.518,154.562 94.26,154.562 114.488,194.254 134.712,154.562 156.457,154.562 156.457,244.568 	"/>
	<rect x="166.847" y="154.562" fill="#001F5B" width="22.123" height="90.006"/>
	<path fill="#001F5B" d="M244.702,244.568l-15.929-33.504h-7.455v33.504h-22.125v-90.006h35.648
		c19.973,0,30.719,14.154,30.719,28.948c0,12.261-7.583,19.972-14.663,23.512l19.466,37.546H244.702z M233.832,174.405h-12.514
		v18.206h12.514c6.07,0,9.606-4.426,9.606-9.101C243.438,178.833,239.901,174.405,233.832,174.405"/>
	<polygon fill="#001F5B" points="308.161,154.562 324.593,154.562 354.302,244.568 331.422,244.568 316.251,194.254 
		301.336,244.568 278.327,244.568 	"/>
	<polygon fill="#001F5B" points="387.458,174.28 387.458,244.568 365.336,244.568 365.336,174.28 343.214,174.28 343.214,154.562 
		409.584,154.562 409.584,174.28 	"/>
	<polygon fill="#001F5B" points="420.151,244.568 420.151,154.562 481.336,154.562 481.336,174.28 442.273,174.28 442.273,189.325 
		475.645,189.325 475.645,209.045 442.273,209.045 442.273,224.845 481.336,224.845 481.336,244.568 	"/>
	<path fill="#001F5B" d="M525.991,245.328c-13.776,0-25.031-2.53-34.133-11.888l14.156-14.157
		c4.679,4.678,12.894,6.322,20.101,6.322c8.727,0,12.896-2.908,12.896-8.089c0-2.151-0.504-3.917-1.771-5.312
		c-1.137-1.138-3.034-2.019-5.939-2.403l-10.871-1.515c-7.964-1.139-14.032-3.792-18.08-7.965
		c-4.169-4.296-6.194-10.367-6.194-18.078c0-16.431,12.395-28.439,32.871-28.439c12.894,0,22.625,3.029,30.339,10.742
		l-13.904,13.907c-5.691-5.689-13.147-5.312-17.07-5.312c-7.707,0-10.871,4.427-10.871,8.345c0,1.137,0.378,2.783,1.771,4.172
		c1.139,1.141,3.033,2.279,6.193,2.654l10.872,1.517c8.092,1.135,13.907,3.665,17.697,7.46c4.803,4.678,6.702,11.375,6.702,19.717
		C560.756,235.338,544.951,245.328,525.991,245.328"/>
	<polygon fill="#555759" points="727.752,244.568 699.054,199.51 699.054,244.568 677.031,244.568 677.031,154.955 696.289,154.955 
		724.981,200.013 724.981,154.955 747.007,154.955 747.007,244.568 	"/>
	<polygon fill="#555759" points="765.141,244.568 765.141,154.955 787.17,154.955 787.17,224.934 824.8,224.934 824.8,244.568 	"/>
	<rect x="837.647" y="154.955" fill="#555759" width="22.023" height="89.613"/>
	<polygon fill="#555759" points="928.52,244.568 899.823,199.51 899.823,244.568 877.8,244.568 877.8,154.955 897.056,154.955 
		925.753,200.013 925.753,154.955 947.777,154.955 947.777,244.568 	"/>
	<polygon fill="#555759" points="965.909,244.568 965.909,154.955 1026.826,154.955 1026.826,174.591 987.936,174.591 
		987.936,189.568 1021.162,189.568 1021.162,209.201 987.936,209.201 987.936,224.934 1026.826,224.934 1026.826,244.568 	"/>
	<path fill="#FFFFFF" d="M619.051,139.397v-1.575h-3.738v-2.573h10.479v4.148c0,2.327-1.654,3.574-3.373,3.574
		C620.698,142.972,619.051,141.725,619.051,139.397 M623.476,139.278v-1.456h-2.118v1.456c0,0.708,0.52,1.118,1.062,1.118
		C622.964,140.396,623.476,139.986,623.476,139.278"/>
	<path fill="#FFFFFF" d="M615.312,149.403l3.898-1.854v-0.867h-3.898v-2.576h10.479v4.151c0,2.326-1.654,3.575-3.373,3.575
		c-1.425,0-2.325-0.884-2.738-1.705l-4.368,2.262V149.403z M623.476,148.139v-1.456h-2.118v1.456c0,0.707,0.52,1.117,1.062,1.117
		C622.964,149.256,623.476,148.846,623.476,148.139"/>
	<path fill="#FFFFFF" d="M616.403,159.964c-0.764-0.767-1.178-1.646-1.178-2.93c0-1.277,0.414-2.163,1.178-2.925
		c1.1-1.105,2.571-1.06,4.152-1.06c1.573,0,3.042-0.046,4.146,1.06c0.763,0.762,1.178,1.647,1.178,2.925
		c0,1.284-0.415,2.163-1.178,2.93c-1.104,1.104-2.573,1.059-4.146,1.059C618.975,161.022,617.503,161.068,616.403,159.964
		 M623.127,158.065c0.246-0.191,0.454-0.558,0.454-1.031c0-0.47-0.208-0.833-0.454-1.027c-0.311-0.234-0.667-0.383-2.571-0.383
		c-1.917,0-2.255,0.148-2.565,0.383c-0.247,0.194-0.474,0.558-0.474,1.027c0,0.474,0.227,0.84,0.474,1.031
		c0.311,0.234,0.648,0.385,2.565,0.385C622.46,158.45,622.816,158.3,623.127,158.065"/>
	<path fill="#FFFFFF" d="M615.226,163.787c0-1.221,0.295-2.001,1.146-2.851l1.676,1.69c-0.321,0.321-0.53,0.586-0.53,1.16
		c0,0.796,0.441,1.369,1.445,1.369h6.832v2.574h-6.89C616.417,167.73,615.226,165.762,615.226,163.787"/>
	<path fill="#FFFFFF" d="M618.449,168.895c1.251,0,1.879,0.636,2.28,1.208c0.337-0.526,0.894-1.089,2.047-1.089
		c1.802,0,3.103,1.429,3.103,3.37c0,1.87-1.193,3.368-3.161,3.368v-2.412c0.628,0,0.98-0.457,0.98-0.956
		c0-0.501-0.333-0.957-1.001-0.957c-0.469,0-0.984,0.278-0.984,1v0.337h-2.091v-0.337c0-0.647-0.471-1.12-1.105-1.12
		c-0.742,0-1.112,0.444-1.112,1.077c0,0.601,0.37,1.073,1.098,1.073v2.414c-2.35,0-3.276-1.749-3.276-3.487
		C615.226,170.543,616.256,168.895,618.449,168.895"/>
	<path fill="#FFFFFF" d="M615.226,180.893c0-1.219,0.413-2.148,1.177-2.913c1.102-1.104,2.572-1.061,4.15-1.061
		c1.576,0,3.046-0.044,4.147,1.061c0.764,0.765,1.179,1.694,1.179,2.913c0,1.986-1.107,3.588-3.418,3.971v-2.62
		c0.589-0.16,1.119-0.481,1.119-1.335c0-0.47-0.189-0.827-0.441-1.016c-0.31-0.237-0.678-0.401-2.586-0.401
		c-1.913,0-2.282,0.164-2.595,0.401c-0.247,0.188-0.441,0.546-0.441,1.016c0,0.854,0.53,1.175,1.123,1.335v2.62
		C616.326,184.48,615.226,182.879,615.226,180.893"/>
	<polygon fill="#FFFFFF" points="623.494,190.091 615.314,190.091 615.314,187.517 623.494,187.517 623.494,184.942 
		625.792,184.942 625.792,192.666 623.494,192.666 	"/>
	<path fill="#FFFFFF" d="M615.226,196.682c0-1.601,0.295-2.911,1.378-3.971l1.652,1.646c-0.545,0.547-0.739,1.502-0.739,2.343
		c0,1.011,0.343,1.5,0.946,1.5c0.245,0,0.454-0.062,0.619-0.206c0.129-0.131,0.234-0.354,0.274-0.692l0.183-1.266
		c0.129-0.925,0.437-1.633,0.924-2.106c0.501-0.479,1.205-0.719,2.106-0.719c1.91,0,3.31,1.443,3.31,3.828
		c0,1.499-0.351,2.631-1.255,3.53l-1.618-1.62c0.664-0.659,0.623-1.528,0.623-1.986c0-0.896-0.519-1.266-0.975-1.266
		c-0.131,0-0.324,0.047-0.487,0.209c-0.129,0.13-0.26,0.349-0.303,0.718l-0.179,1.267c-0.133,0.94-0.427,1.618-0.866,2.058
		c-0.548,0.563-1.326,0.78-2.304,0.78C616.384,200.728,615.226,198.891,615.226,196.682"/>
	<path fill="#555759" d="M620.536,246.162c-25.695,0-46.601-20.902-46.601-46.6c0-13.213,5.647-25.854,15.484-34.686
		c4.259-3.819,10.815-3.463,14.633,0.788c3.823,4.261,3.471,10.814-0.788,14.639c-5.468,4.905-8.605,11.925-8.605,19.259
		c0,14.269,11.612,25.874,25.877,25.874s25.868-11.605,25.868-25.874c0-7.773-3.449-15.067-9.466-20.008
		c-4.42-3.632-5.063-10.161-1.432-14.584c3.63-4.421,10.162-5.063,14.582-1.432c10.83,8.894,17.043,22.023,17.043,36.023
		C667.132,225.26,646.23,246.162,620.536,246.162"/>
	<rect id="_x3C_Slice_x3E__4_" y="130" fill="none" width="1027" height="115"/>
</g>
</svg>
