<?xml version="1.0" encoding="utf-8"?>
<!-- Generator: Adobe Illustrator 15.0.2, SVG Export Plug-In  -->
<!DOCTYPE svg PUBLIC "-//W3C//DTD SVG 1.1//EN" "http://www.w3.org/Graphics/SVG/1.1/DTD/svg11.dtd" [
	<!ENTITY ns_flows "http://ns.adobe.com/Flows/1.0/">
]>
<svg version="1.1"
	 xmlns="http://www.w3.org/2000/svg" xmlns:xlink="http://www.w3.org/1999/xlink" xmlns:a="http://ns.adobe.com/AdobeSVGViewerExtensions/3.0/"
	 x="0px" y="0px" width="289px" height="60px" viewBox="0 0 289 60" overflow="visible" enable-background="new 0 0 289 60"
	 xml:space="preserve">
<defs>
</defs>
<path fill="#5F6062" d="M132.82,58.82c-0.92,0.95-1.95,1.21-3.13,1.21c-1.26,0-2.21-0.42-2.99-1.21c-1.14-1.13-1.09-2.65-1.09-4.26
	s-0.04-3.13,1.09-4.26c0.79-0.79,1.69-1.21,2.99-1.21c2.77,0,3.95,1.8,4.2,3.57h-2.66c-0.21-0.82-0.64-1.21-1.54-1.21
	c-0.48,0-0.85,0.21-1.04,0.47c-0.24,0.32-0.39,0.68-0.39,2.65c0,1.97,0.15,2.35,0.39,2.66c0.2,0.26,0.56,0.45,1.04,0.45
	c0.56,0,0.94-0.17,1.18-0.42c0.3-0.3,0.41-0.74,0.41-1.15v-0.15h-1.59v-2.21h4.22v1.5C133.91,56.98,133.64,57.99,132.82,58.82"/>
<polygon fill="#5F6062" points="146.34,59.94 146.34,57.88 150.47,51.53 146.52,51.53 146.52,49.17 153.64,49.17 153.64,51.23 
	149.5,57.58 153.64,57.58 153.64,59.94 "/>
<rect x="155.94" y="49.17" fill="#5F6062" width="2.65" height="10.77"/>
<polygon fill="#5F6062" points="167.61,59.94 164.17,54.53 164.17,59.94 161.52,59.94 161.52,49.17 163.83,49.17 167.28,54.59 
	167.28,49.17 169.93,49.17 169.93,59.94 "/>
<polygon fill="#5F6062" points="172.86,59.94 172.86,49.17 180.18,49.17 180.18,51.53 175.51,51.53 175.51,53.33 179.5,53.33 
	179.5,55.69 175.51,55.69 175.51,57.58 180.18,57.58 180.18,59.94 "/>
<polygon fill="#5F6062" points="118.33,49.17 120.3,49.17 123.85,59.94 121.11,59.94 119.3,53.92 117.51,59.94 114.76,59.94 "/>
<polygon fill="#5F6062" points="138.72,49.17 140.68,49.17 144.24,59.94 141.5,59.94 139.69,53.92 137.9,59.94 135.15,59.94 "/>
<rect x="168.63" y="0.68" fill="#5F6062" width="11.71" height="43.66"/>
<path fill="#FFFFFF" d="M173.6,5.79V4.87h-2.19V3.36h6.13v2.43c0,1.36-0.97,2.09-1.97,2.09C174.57,7.88,173.6,7.15,173.6,5.79
	 M176.2,5.72V4.87h-1.24v0.85c0,0.41,0.3,0.65,0.62,0.65C175.89,6.37,176.2,6.13,176.2,5.72"/>
<path fill="#FFFFFF" d="M171.42,11.64l2.28-1.08v-0.51h-2.28V8.54h6.13v2.43c0,1.36-0.97,2.09-1.97,2.09c-0.83,0-1.36-0.52-1.6-1
	l-2.56,1.32V11.64z M176.2,10.9v-0.85h-1.24v0.85c0,0.41,0.3,0.65,0.62,0.65C175.89,11.55,176.2,11.31,176.2,10.9"/>
<path fill="#FFFFFF" d="M172.05,17.82c-0.45-0.45-0.69-0.96-0.69-1.71c0-0.75,0.24-1.27,0.69-1.71c0.65-0.65,1.51-0.62,2.43-0.62
	c0.92,0,1.78-0.03,2.43,0.62c0.45,0.45,0.69,0.96,0.69,1.71c0,0.75-0.24,1.27-0.69,1.71c-0.65,0.65-1.51,0.62-2.43,0.62
	C173.56,18.44,172.7,18.46,172.05,17.82 M175.99,16.71c0.15-0.11,0.27-0.33,0.27-0.6c0-0.27-0.12-0.49-0.27-0.6
	c-0.18-0.14-0.39-0.22-1.5-0.22c-1.12,0-1.32,0.09-1.5,0.22c-0.15,0.11-0.28,0.33-0.28,0.6c0,0.27,0.13,0.49,0.28,0.6
	c0.18,0.14,0.38,0.22,1.5,0.22C175.6,16.93,175.81,16.85,175.99,16.71"/>
<path fill="#FFFFFF" d="M171.37,20.06c0-0.71,0.17-1.17,0.67-1.67l0.98,0.99c-0.19,0.19-0.31,0.34-0.31,0.68
	c0,0.47,0.26,0.8,0.85,0.8h3.99v1.51h-4.03C172.06,22.36,171.37,21.21,171.37,20.06"/>
<path fill="#FFFFFF" d="M173.25,23.04c0.73,0,1.1,0.37,1.33,0.71c0.2-0.31,0.52-0.64,1.2-0.64c1.06,0,1.82,0.83,1.82,1.97
	c0,1.09-0.7,1.97-1.85,1.97v-1.41c0.37,0,0.57-0.27,0.57-0.56c0-0.29-0.2-0.56-0.58-0.56c-0.27,0-0.57,0.16-0.57,0.59v0.2h-1.22
	v-0.2c0-0.38-0.28-0.65-0.65-0.65c-0.44,0-0.65,0.26-0.65,0.63c0,0.35,0.21,0.63,0.64,0.63v1.41c-1.38,0-1.92-1.02-1.92-2.04
	C171.37,24.01,171.97,23.04,173.25,23.04"/>
<path fill="#FFFFFF" d="M171.37,30.06c0-0.71,0.24-1.26,0.69-1.71c0.65-0.64,1.51-0.62,2.43-0.62c0.92,0,1.78-0.03,2.43,0.62
	c0.45,0.45,0.69,0.99,0.69,1.71c0,1.16-0.65,2.1-2,2.32v-1.53c0.34-0.09,0.65-0.28,0.65-0.78c0-0.28-0.11-0.48-0.26-0.6
	c-0.18-0.14-0.4-0.23-1.52-0.23c-1.12,0-1.33,0.09-1.51,0.23c-0.15,0.11-0.26,0.32-0.26,0.6c0,0.5,0.31,0.69,0.65,0.78v1.53
	C172.01,32.16,171.37,31.22,171.37,30.06"/>
<polygon fill="#FFFFFF" points="176.2,35.44 171.42,35.44 171.42,33.94 176.2,33.94 176.2,32.43 177.55,32.43 177.55,36.95 
	176.2,36.95 "/>
<path fill="#FFFFFF" d="M171.37,39.3c0-0.94,0.17-1.71,0.81-2.32l0.96,0.96c-0.32,0.32-0.43,0.88-0.43,1.37
	c0,0.59,0.2,0.88,0.55,0.88c0.15,0,0.27-0.03,0.36-0.12c0.08-0.08,0.14-0.21,0.16-0.4l0.1-0.74c0.08-0.54,0.26-0.96,0.54-1.23
	c0.29-0.28,0.71-0.42,1.23-0.42c1.12,0,1.94,0.84,1.94,2.24c0,0.88-0.21,1.54-0.73,2.07l-0.95-0.95c0.39-0.39,0.36-0.9,0.36-1.16
	c0-0.53-0.3-0.74-0.57-0.74c-0.08,0-0.19,0.03-0.28,0.12c-0.08,0.08-0.15,0.21-0.18,0.42l-0.1,0.74c-0.08,0.55-0.25,0.95-0.51,1.21
	c-0.32,0.33-0.77,0.46-1.34,0.46C172.05,41.67,171.37,40.59,171.37,39.3"/>
<polygon fill="#5F6062" points="109.89,59.94 109.89,54.78 108.37,57.45 106.67,57.45 105.15,54.78 105.15,59.94 102.5,59.94 
	102.5,49.17 105.1,49.17 107.52,53.92 109.94,49.17 112.54,49.17 112.54,59.94 "/>
<path fill="#B9B309" d="M16.62,44.56c-6.71,0-12.19-1.23-16.62-5.78l6.89-6.89c2.28,2.28,6.28,3.08,9.79,3.08
	c4.24,0,6.28-1.42,6.28-3.94c0-1.05-0.25-1.91-0.86-2.58c-0.56-0.55-1.48-0.99-2.89-1.17l-5.29-0.74c-3.88-0.55-6.83-1.85-8.8-3.88
	c-2.03-2.09-3.02-5.05-3.02-8.8c0-8,6.03-13.85,16-13.85c6.28,0,11.02,1.48,14.77,5.23L26.09,12c-2.77-2.77-6.4-2.58-8.31-2.58
	c-3.75,0-5.29,2.15-5.29,4.06c0,0.56,0.18,1.35,0.86,2.03c0.55,0.55,1.48,1.11,3.02,1.29l5.29,0.74c3.94,0.55,6.77,1.78,8.61,3.63
	c2.34,2.28,3.26,5.54,3.26,9.6C33.54,39.69,25.85,44.56,16.62,44.56"/>
<polygon fill="#B9B309" points="50.71,0.37 58.71,0.37 73.17,44.19 62.03,44.19 54.65,19.69 47.39,44.19 36.19,44.19 "/>
<path fill="#B9B309" d="M92.2,44.56c-9.11,0-16.55-6.15-16.55-15.75V0.37h10.77v28.19c0,4.06,2.22,6.4,5.79,6.4
	c3.57,0,5.91-2.34,5.91-6.4V0.37h10.77V28.8C108.88,38.4,101.31,44.56,92.2,44.56"/>
<path fill="#B9B309" d="M142.27,39.88c-3.02,3.02-7.26,4.31-11.82,4.31h-16.25V0.37h16.25c4.55,0,8.8,1.29,11.82,4.31
	c5.11,5.11,4.55,10.71,4.55,17.6C146.83,29.17,147.38,34.77,142.27,39.88 M134.89,12.43c-0.98-1.48-2.46-2.46-5.17-2.46h-4.74v24.62
	h4.74c2.71,0,4.19-0.98,5.17-2.46c0.86-1.23,1.17-2.4,1.17-9.84C136.06,14.89,135.75,13.66,134.89,12.43"/>
<rect x="152.09" y="0.37" fill="#B9B309" width="10.77" height="43.82"/>
</svg>
